{
	"random": 76,
	"random float": 8.519,
	"bool": false,
	"date": "1990-06-16",
	"regEx": "helloooooo to you",
	"enum": "generator",
	"firstname": "Mariele",
	"lastname": "Konyn",
	"city": "Dushanbe",
	"country": "Macao",
	"countryCode": "MV",
	"email uses current data": "Mariele.Konyn@gmail.com",
	"email from expression": "Mariele.Konyn@yopmail.com",
	"array": [
		"Lila",
		"Carol-Jean",
		"Lucille",
		"Siana",
		"Hope"
	],
	"array of objects": [
		{
			"index": 0,
			"index start at 5": 5
		},
		{
			"index": 1,
			"index start at 5": 6
		},
		{
			"index": 2,
			"index start at 5": 7
		}
	],
	"Gisela": {
		"age": 98
	}
}