{
	"random": 20,
	"random float": 13.561,
	"bool": false,
	"date": "1993-05-02",
	"regEx": "hellooooooooooooooooooooooooooooooooooooooooooooooooooooooooooooooooooooooo world",
	"enum": "json",
	"firstname": "Katuscha",
	"lastname": "Cornelia",
	"city": "Porto",
	"country": "Switzerland",
	"countryCode": "DM",
	"email uses current data": "Katuscha.Cornelia@gmail.com",
	"email from expression": "Katuscha.Cornelia@yopmail.com",
	"array": [
		"Bobbi",
		"Tatiania",
		"Justinn",
		"Libbie",
		"Dacia"
	],
	"array of objects": [
		{
			"index": 0,
			"index start at 5": 5
		},
		{
			"index": 1,
			"index start at 5": 6
		},
		{
			"index": 2,
			"index start at 5": 7
		}
	],
	"Anica": {
		"age": 40
	}
}