{
	"random": 23,
	"random float": 47.615,
	"bool": true,
	"date": "1990-06-01",
	"regEx": "helloooooooooooooooooooooooooooooooo world",
	"enum": "json",
	"firstname": "Melodie",
	"lastname": "Pettiford",
	"city": "Canberra",
	"country": "Romania",
	"countryCode": "SJ",
	"email uses current data": "Melodie.Pettiford@gmail.com",
	"email from expression": "Melodie.Pettiford@yopmail.com",
	"array": [
		"Kial",
		"Kelly",
		"Evaleen",
		"Nanete",
		"Katharina"
	],
	"array of objects": [
		{
			"index": 0,
			"index start at 5": 5
		},
		{
			"index": 1,
			"index start at 5": 6
		},
		{
			"index": 2,
			"index start at 5": 7
		}
	],
	"Alia": {
		"age": 21
	}
}