{
	"random": 72,
	"random float": 87.723,
	"bool": false,
	"date": "1985-04-17",
	"regEx": "helloooooooooooooooooooooooooooooooooooooooooooooooooooooooooooooooooooooooooooooo world",
	"enum": "generator",
	"firstname": "Addia",
	"lastname": "Alice",
	"city": "Tamale",
	"country": "Mayotte",
	"countryCode": "GU",
	"email uses current data": "Addia.Alice@gmail.com",
	"email from expression": "Addia.Alice@yopmail.com",
	"array": [
		"Ariela",
		"Benita",
		"Brena",
		"Kimberley",
		"Malina"
	],
	"array of objects": [
		{
			"index": 0,
			"index start at 5": 5
		},
		{
			"index": 1,
			"index start at 5": 6
		},
		{
			"index": 2,
			"index start at 5": 7
		}
	],
	"Roz": {
		"age": 57
	}
}