{
	"random": 96,
	"random float": 9.829,
	"bool": false,
	"date": "1991-11-15",
	"regEx": "helloooooooooooooooooooooooooooooooo to you",
	"enum": "json",
	"firstname": "Grier",
	"lastname": "Kazimir",
	"city": "N'Djamena",
	"country": "Finland",
	"countryCode": "CM",
	"email uses current data": "Grier.Kazimir@gmail.com",
	"email from expression": "Grier.Kazimir@yopmail.com",
	"array": [
		"Trixi",
		"Ardenia",
		"Celisse",
		"Violet",
		"Cathie"
	],
	"array of objects": [
		{
			"index": 0,
			"index start at 5": 5
		},
		{
			"index": 1,
			"index start at 5": 6
		},
		{
			"index": 2,
			"index start at 5": 7
		}
	],
	"Florencia": {
		"age": 21
	}
}