{
	"random": 12,
	"random float": 67.583,
	"bool": true,
	"date": "1987-04-05",
	"regEx": "hellooooooooooooooooooooooooooooooooooooooooooooooooooooooooooooooooooooooooooooooooooooooooooooooooooooo world",
	"enum": "generator",
	"firstname": "Rosanne",
	"lastname": "Marsden",
	"city": "Ljubljana",
	"country": "Slovakia",
	"countryCode": "NF",
	"email uses current data": "Rosanne.Marsden@gmail.com",
	"email from expression": "Rosanne.Marsden@yopmail.com",
	"array": [
		"Beverley",
		"Corina",
		"Dari",
		"Dolli",
		"Melodie"
	],
	"array of objects": [
		{
			"index": 0,
			"index start at 5": 5
		},
		{
			"index": 1,
			"index start at 5": 6
		},
		{
			"index": 2,
			"index start at 5": 7
		}
	],
	"Farrah": {
		"age": 40
	}
}