{
	"random": 11,
	"random float": 100.714,
	"bool": false,
	"date": "1984-09-28",
	"regEx": "helloooooooooooooooooo to you",
	"enum": "json",
	"firstname": "Arabel",
	"lastname": "Weinreb",
	"city": "Graz",
	"country": "Holy See (Vatican City State)",
	"countryCode": "SJ",
	"email uses current data": "Arabel.Weinreb@gmail.com",
	"email from expression": "Arabel.Weinreb@yopmail.com",
	"array": [
		"Leia",
		"Susan",
		"Kellen",
		"Chickie",
		"Teriann"
	],
	"array of objects": [
		{
			"index": 0,
			"index start at 5": 5
		},
		{
			"index": 1,
			"index start at 5": 6
		},
		{
			"index": 2,
			"index start at 5": 7
		}
	],
	"Pearline": {
		"age": 75
	}
}