{
	"random": 34,
	"random float": 68.538,
	"bool": true,
	"date": "1996-08-14",
	"regEx": "helloooooooooooooooooooooooooooooooooooooooooooooooooooooooooooooooooo to you",
	"enum": "json",
	"firstname": "Phylis",
	"lastname": "Rudolph",
	"city": "Malé",
	"country": "Croatia",
	"countryCode": "PR",
	"email uses current data": "Phylis.Rudolph@gmail.com",
	"email from expression": "Phylis.Rudolph@yopmail.com",
	"array": [
		"Halette",
		"Stacey",
		"Fayre",
		"Taffy",
		"Zsa Zsa"
	],
	"array of objects": [
		{
			"index": 0,
			"index start at 5": 5
		},
		{
			"index": 1,
			"index start at 5": 6
		},
		{
			"index": 2,
			"index start at 5": 7
		}
	],
	"Queenie": {
		"age": 62
	}
}