{
	"random": 79,
	"random float": 73.657,
	"bool": false,
	"date": "1997-02-05",
	"regEx": "helloooooooooooooooooooo world",
	"enum": "json",
	"firstname": "Elise",
	"lastname": "Suanne",
	"city": "Luanda",
	"country": "Lebanon",
	"countryCode": "NF",
	"email uses current data": "Elise.Suanne@gmail.com",
	"email from expression": "Elise.Suanne@yopmail.com",
	"array": [
		"Ann-Marie",
		"Grier",
		"Cyndie",
		"Viviene",
		"Merry"
	],
	"array of objects": [
		{
			"index": 0,
			"index start at 5": 5
		},
		{
			"index": 1,
			"index start at 5": 6
		},
		{
			"index": 2,
			"index start at 5": 7
		}
	],
	"Trudie": {
		"age": 28
	}
}