{
	"random": 16,
	"random float": 50.403,
	"bool": false,
	"date": "1987-11-13",
	"regEx": "helloooooooooooooooooooooooooooooooooooooooooooooooooooooooo to you",
	"enum": "json",
	"firstname": "Kalina",
	"lastname": "Halsey",
	"city": "Kabul",
	"country": "Brazil",
	"countryCode": "GN",
	"email uses current data": "Kalina.Halsey@gmail.com",
	"email from expression": "Kalina.Halsey@yopmail.com",
	"array": [
		"Elfreda",
		"Ileana",
		"Kristan",
		"Emma",
		"Vevay"
	],
	"array of objects": [
		{
			"index": 0,
			"index start at 5": 5
		},
		{
			"index": 1,
			"index start at 5": 6
		},
		{
			"index": 2,
			"index start at 5": 7
		}
	],
	"Julieta": {
		"age": 61
	}
}