{
	"random": 61,
	"random float": 29.748,
	"bool": false,
	"date": "1984-04-09",
	"regEx": "hellooooooooooooooooooooooooooooooooooooooooooooooooooooooooooooooooooooooooooooooooooooooooooooooooooooo to you",
	"enum": "online",
	"firstname": "Ira",
	"lastname": "Mozelle",
	"city": "Koulikoro",
	"country": "Estonia",
	"countryCode": "BR",
	"email uses current data": "Ira.Mozelle@gmail.com",
	"email from expression": "Ira.Mozelle@yopmail.com",
	"array": [
		"Lonnie",
		"Brianna",
		"Diena",
		"Zondra",
		"Ricky"
	],
	"array of objects": [
		{
			"index": 0,
			"index start at 5": 5
		},
		{
			"index": 1,
			"index start at 5": 6
		},
		{
			"index": 2,
			"index start at 5": 7
		}
	],
	"Cindelyn": {
		"age": 64
	}
}