{
	"random": 47,
	"random float": 34.532,
	"bool": true,
	"date": "1982-01-06",
	"regEx": "hellooooooooooooooooooooooooooooooooooooooooooooooooooooooooooooooooooooooooooooooooooooooooooooo world",
	"enum": "online",
	"firstname": "Bobbi",
	"lastname": "Kiersten",
	"city": "Ljubljana",
	"country": "Georgia",
	"countryCode": "EC",
	"email uses current data": "Bobbi.Kiersten@gmail.com",
	"email from expression": "Bobbi.Kiersten@yopmail.com",
	"array": [
		"Janenna",
		"Aurore",
		"Alleen",
		"Lila",
		"Dacia"
	],
	"array of objects": [
		{
			"index": 0,
			"index start at 5": 5
		},
		{
			"index": 1,
			"index start at 5": 6
		},
		{
			"index": 2,
			"index start at 5": 7
		}
	],
	"Binny": {
		"age": 85
	}
}