{
	"random": 13,
	"random float": 89.588,
	"bool": true,
	"date": "1988-06-27",
	"regEx": "hellooooooooooooooooooooooooooooooooooooooooooooooooooooo world",
	"enum": "generator",
	"firstname": "Jolyn",
	"lastname": "Lareena",
	"city": "Barcelona",
	"country": "Netherlands",
	"countryCode": "PN",
	"email uses current data": "Jolyn.Lareena@gmail.com",
	"email from expression": "Jolyn.Lareena@yopmail.com",
	"array": [
		"Dorice",
		"Priscilla",
		"Nadine",
		"Tani",
		"Silvana"
	],
	"array of objects": [
		{
			"index": 0,
			"index start at 5": 5
		},
		{
			"index": 1,
			"index start at 5": 6
		},
		{
			"index": 2,
			"index start at 5": 7
		}
	],
	"Carlie": {
		"age": 77
	}
}