{
	"random": 41,
	"random float": 50.704,
	"bool": true,
	"date": "1997-03-28",
	"regEx": "hellooooooooooooooooooooooooooooooooooooooooooooooooooooooooooooooooooooooooooooooooooooooo to you",
	"enum": "json",
	"firstname": "Ardeen",
	"lastname": "Carbo",
	"city": "Dhaka",
	"country": "Cambodia",
	"countryCode": "RE",
	"email uses current data": "Ardeen.Carbo@gmail.com",
	"email from expression": "Ardeen.Carbo@yopmail.com",
	"array": [
		"Lorne",
		"Hettie",
		"Brianna",
		"Estell",
		"Ellette"
	],
	"array of objects": [
		{
			"index": 0,
			"index start at 5": 5
		},
		{
			"index": 1,
			"index start at 5": 6
		},
		{
			"index": 2,
			"index start at 5": 7
		}
	],
	"Gavrielle": {
		"age": 23
	}
}