{
	"random": 98,
	"random float": 51.796,
	"bool": false,
	"date": "1984-03-21",
	"regEx": "hellooooooooooooooooooooooooooooooooooooooooooooooooooooooooooo to you",
	"enum": "json",
	"firstname": "Ginnie",
	"lastname": "Federica",
	"city": "Vatican City",
	"country": "Western Sahara",
	"countryCode": "AI",
	"email uses current data": "Ginnie.Federica@gmail.com",
	"email from expression": "Ginnie.Federica@yopmail.com",
	"array": [
		"Andeee",
		"Zaria",
		"Carmencita",
		"Lucille",
		"Tina"
	],
	"array of objects": [
		{
			"index": 0,
			"index start at 5": 5
		},
		{
			"index": 1,
			"index start at 5": 6
		},
		{
			"index": 2,
			"index start at 5": 7
		}
	],
	"Kimmy": {
		"age": 35
	}
}