{
	"random": 3,
	"random float": 11.016,
	"bool": false,
	"date": "1989-03-24",
	"regEx": "helloooooooooooooooooooooooooooooooooooooooooooooooooooo world",
	"enum": "generator",
	"firstname": "Daryl",
	"lastname": "Lowry",
	"city": "San Salvador",
	"country": "Macao",
	"countryCode": "DK",
	"email uses current data": "Daryl.Lowry@gmail.com",
	"email from expression": "Daryl.Lowry@yopmail.com",
	"array": [
		"Valeda",
		"Jaclyn",
		"Brianna",
		"Quintina",
		"Claresta"
	],
	"array of objects": [
		{
			"index": 0,
			"index start at 5": 5
		},
		{
			"index": 1,
			"index start at 5": 6
		},
		{
			"index": 2,
			"index start at 5": 7
		}
	],
	"Constance": {
		"age": 23
	}
}