{
	"random": 10,
	"random float": 93.528,
	"bool": true,
	"date": "1994-03-19",
	"regEx": "hellooooooooooooooooooooooooooooooooooooooooooooooooooooooooooooooooooooooo to you",
	"enum": "online",
	"firstname": "Lauryn",
	"lastname": "Llovera",
	"city": "Cork (city)",
	"country": "Bulgaria",
	"countryCode": "KZ",
	"email uses current data": "Lauryn.Llovera@gmail.com",
	"email from expression": "Lauryn.Llovera@yopmail.com",
	"array": [
		"Renie",
		"Deedee",
		"Viki",
		"Demetris",
		"Magdalena"
	],
	"array of objects": [
		{
			"index": 0,
			"index start at 5": 5
		},
		{
			"index": 1,
			"index start at 5": 6
		},
		{
			"index": 2,
			"index start at 5": 7
		}
	],
	"Doralynne": {
		"age": 88
	}
}