{
	"random": 80,
	"random float": 17.228,
	"bool": false,
	"date": "1993-05-07",
	"regEx": "helloooooooooooooooooooooooooooooooooooooooooooooooooooooooooooo to you",
	"enum": "generator",
	"firstname": "Renie",
	"lastname": "Hanshaw",
	"city": "Adak",
	"country": "Spain",
	"countryCode": "IQ",
	"email uses current data": "Renie.Hanshaw@gmail.com",
	"email from expression": "Renie.Hanshaw@yopmail.com",
	"array": [
		"Fredericka",
		"Celene",
		"Jenda",
		"Daryl",
		"Morganica"
	],
	"array of objects": [
		{
			"index": 0,
			"index start at 5": 5
		},
		{
			"index": 1,
			"index start at 5": 6
		},
		{
			"index": 2,
			"index start at 5": 7
		}
	],
	"Iseabal": {
		"age": 67
	}
}