{
	"random": 15,
	"random float": 5.947,
	"bool": true,
	"date": "1995-01-25",
	"regEx": "helloooooooooooooooooooooooooooooooooooooooooooooooooooooooooooooooooooooooo world",
	"enum": "json",
	"firstname": "Nerta",
	"lastname": "O'Neill",
	"city": "Lobamba",
	"country": "Nigeria",
	"countryCode": "HR",
	"email uses current data": "Nerta.O'Neill@gmail.com",
	"email from expression": "Nerta.O'Neill@yopmail.com",
	"array": [
		"Vanessa",
		"Misha",
		"Jinny",
		"Verla",
		"Mamie"
	],
	"array of objects": [
		{
			"index": 0,
			"index start at 5": 5
		},
		{
			"index": 1,
			"index start at 5": 6
		},
		{
			"index": 2,
			"index start at 5": 7
		}
	],
	"Teddie": {
		"age": 54
	}
}