{
	"random": 22,
	"random float": 77.486,
	"bool": true,
	"date": "1989-06-30",
	"regEx": "hellooooooooooooooooooooooooo world",
	"enum": "online",
	"firstname": "Berget",
	"lastname": "Tiffa",
	"city": "Douglas",
	"country": "Burundi",
	"countryCode": "HM",
	"email uses current data": "Berget.Tiffa@gmail.com",
	"email from expression": "Berget.Tiffa@yopmail.com",
	"array": [
		"Gusty",
		"Deedee",
		"Florencia",
		"Taffy",
		"Janis"
	],
	"array of objects": [
		{
			"index": 0,
			"index start at 5": 5
		},
		{
			"index": 1,
			"index start at 5": 6
		},
		{
			"index": 2,
			"index start at 5": 7
		}
	],
	"Lyssa": {
		"age": 82
	}
}