{
	"random": 11,
	"random float": 13.488,
	"bool": false,
	"date": "1987-07-13",
	"regEx": "helloooooooooooooooooooooooooooooooooooooooooooooooooooooooooooooooooooooooooooooooooooooooooooooo world",
	"enum": "online",
	"firstname": "Georgetta",
	"lastname": "Marlie",
	"city": "Serekunda",
	"country": "Israel",
	"countryCode": "MR",
	"email uses current data": "Georgetta.Marlie@gmail.com",
	"email from expression": "Georgetta.Marlie@yopmail.com",
	"array": [
		"Dania",
		"Brynna",
		"Margarette",
		"Leeanne",
		"Raf"
	],
	"array of objects": [
		{
			"index": 0,
			"index start at 5": 5
		},
		{
			"index": 1,
			"index start at 5": 6
		},
		{
			"index": 2,
			"index start at 5": 7
		}
	],
	"Jennica": {
		"age": 51
	}
}