{
	"random": 89,
	"random float": 22.965,
	"bool": true,
	"date": "1991-01-31",
	"regEx": "helloooooooooooooooooooooo world",
	"enum": "json",
	"firstname": "Wileen",
	"lastname": "Oster",
	"city": "Prague",
	"country": "El Salvador",
	"countryCode": "NU",
	"email uses current data": "Wileen.Oster@gmail.com",
	"email from expression": "Wileen.Oster@yopmail.com",
	"array": [
		"Tiffie",
		"Fidelia",
		"Alie",
		"Darlleen",
		"Joy"
	],
	"array of objects": [
		{
			"index": 0,
			"index start at 5": 5
		},
		{
			"index": 1,
			"index start at 5": 6
		},
		{
			"index": 2,
			"index start at 5": 7
		}
	],
	"Natka": {
		"age": 67
	}
}