{
	"random": 57,
	"random float": 83.918,
	"bool": true,
	"date": "1986-06-04",
	"regEx": "hellooooooooooooooooooooooooooooooooooooooooooooooooooooooooooooooooooooooooooooooooooooo to you",
	"enum": "online",
	"firstname": "Blinni",
	"lastname": "Junie",
	"city": "Thiès",
	"country": "Lithuania",
	"countryCode": "MZ",
	"email uses current data": "Blinni.Junie@gmail.com",
	"email from expression": "Blinni.Junie@yopmail.com",
	"array": [
		"Hope",
		"Ann-Marie",
		"Bibby",
		"Kimberley",
		"Ileana"
	],
	"array of objects": [
		{
			"index": 0,
			"index start at 5": 5
		},
		{
			"index": 1,
			"index start at 5": 6
		},
		{
			"index": 2,
			"index start at 5": 7
		}
	],
	"Grier": {
		"age": 61
	}
}