{
	"random": 76,
	"random float": 53.013,
	"bool": false,
	"date": "1984-04-15",
	"regEx": "hellooooooooooooooooooooooooooooooooooooooooooooooooooooooooooooooooooooooooooooooooooooooooo world",
	"enum": "online",
	"firstname": "Gaylene",
	"lastname": "Mayeda",
	"city": "Thiès",
	"country": "Benin",
	"countryCode": "AI",
	"email uses current data": "Gaylene.Mayeda@gmail.com",
	"email from expression": "Gaylene.Mayeda@yopmail.com",
	"array": [
		"Brena",
		"Adore",
		"Elise",
		"Brena",
		"Melina"
	],
	"array of objects": [
		{
			"index": 0,
			"index start at 5": 5
		},
		{
			"index": 1,
			"index start at 5": 6
		},
		{
			"index": 2,
			"index start at 5": 7
		}
	],
	"Madelle": {
		"age": 55
	}
}