{
	"random": 49,
	"random float": 45.756,
	"bool": false,
	"date": "1989-01-17",
	"regEx": "helloooooooooooooooooooooooooooooooooooo to you",
	"enum": "online",
	"firstname": "Rhoda",
	"lastname": "Freddi",
	"city": "Ipoh",
	"country": "Central African Republic",
	"countryCode": "GF",
	"email uses current data": "Rhoda.Freddi@gmail.com",
	"email from expression": "Rhoda.Freddi@yopmail.com",
	"array": [
		"Susan",
		"Thalia",
		"Roslyn",
		"Fidelia",
		"Kaja"
	],
	"array of objects": [
		{
			"index": 0,
			"index start at 5": 5
		},
		{
			"index": 1,
			"index start at 5": 6
		},
		{
			"index": 2,
			"index start at 5": 7
		}
	],
	"Camile": {
		"age": 57
	}
}