{
	"random": 59,
	"random float": 29.008,
	"bool": true,
	"date": "1985-12-05",
	"regEx": "hellooooooooooooooooo to you",
	"enum": "online",
	"firstname": "Neila",
	"lastname": "Kosey",
	"city": "La Serena",
	"country": "Holy See (Vatican City State)",
	"countryCode": "KM",
	"email uses current data": "Neila.Kosey@gmail.com",
	"email from expression": "Neila.Kosey@yopmail.com",
	"array": [
		"Amalie",
		"Susan",
		"Susan",
		"Jan",
		"Mady"
	],
	"array of objects": [
		{
			"index": 0,
			"index start at 5": 5
		},
		{
			"index": 1,
			"index start at 5": 6
		},
		{
			"index": 2,
			"index start at 5": 7
		}
	],
	"Deirdre": {
		"age": 32
	}
}