{
	"random": 20,
	"random float": 30.491,
	"bool": false,
	"date": "1996-12-14",
	"regEx": "helloooooooooooooooooo world",
	"enum": "online",
	"firstname": "Lory",
	"lastname": "Morehouse",
	"city": "Lanzhou",
	"country": "Chile",
	"countryCode": "LU",
	"email uses current data": "Lory.Morehouse@gmail.com",
	"email from expression": "Lory.Morehouse@yopmail.com",
	"array": [
		"Tani",
		"Lelah",
		"Ethel",
		"Drucie",
		"Kerrin"
	],
	"array of objects": [
		{
			"index": 0,
			"index start at 5": 5
		},
		{
			"index": 1,
			"index start at 5": 6
		},
		{
			"index": 2,
			"index start at 5": 7
		}
	],
	"Christal": {
		"age": 67
	}
}