{
	"random": 77,
	"random float": 34.881,
	"bool": true,
	"date": "1986-07-16",
	"regEx": "hellooooooooooooooooooooooooooooooooooooooooooooooooooooooooooooooooooooo world",
	"enum": "generator",
	"firstname": "Rosaline",
	"lastname": "Newell",
	"city": "Tiraspol",
	"country": "Eritrea",
	"countryCode": "GE",
	"email uses current data": "Rosaline.Newell@gmail.com",
	"email from expression": "Rosaline.Newell@yopmail.com",
	"array": [
		"Rosanne",
		"Clementine",
		"Perry",
		"Ida",
		"Merry"
	],
	"array of objects": [
		{
			"index": 0,
			"index start at 5": 5
		},
		{
			"index": 1,
			"index start at 5": 6
		},
		{
			"index": 2,
			"index start at 5": 7
		}
	],
	"Aigneis": {
		"age": 29
	}
}