{
	"random": 13,
	"random float": 54.462,
	"bool": true,
	"date": "1981-11-03",
	"regEx": "helloooooooooooooooooooooooooooooooooooooooooooooooooooooo to you",
	"enum": "online",
	"firstname": "Aaren",
	"lastname": "Wiener",
	"city": "Taiyuan",
	"country": "French Southern Territories",
	"countryCode": "BA",
	"email uses current data": "Aaren.Wiener@gmail.com",
	"email from expression": "Aaren.Wiener@yopmail.com",
	"array": [
		"Roseline",
		"Rhoda",
		"Joy",
		"Ann-Marie",
		"Cristabel"
	],
	"array of objects": [
		{
			"index": 0,
			"index start at 5": 5
		},
		{
			"index": 1,
			"index start at 5": 6
		},
		{
			"index": 2,
			"index start at 5": 7
		}
	],
	"Cristine": {
		"age": 50
	}
}