{
	"random": 66,
	"random float": 58.899,
	"bool": false,
	"date": "1993-11-01",
	"regEx": "hellooooooooooooooooooooooooooooooooooooooooo to you",
	"enum": "json",
	"firstname": "Annabela",
	"lastname": "Atonsah",
	"city": "Veracruz",
	"country": "Sudan",
	"countryCode": "RO",
	"email uses current data": "Annabela.Atonsah@gmail.com",
	"email from expression": "Annabela.Atonsah@yopmail.com",
	"array": [
		"Basia",
		"Gwyneth",
		"Consuela",
		"Kellen",
		"Gloria"
	],
	"array of objects": [
		{
			"index": 0,
			"index start at 5": 5
		},
		{
			"index": 1,
			"index start at 5": 6
		},
		{
			"index": 2,
			"index start at 5": 7
		}
	],
	"Aurore": {
		"age": 97
	}
}