{
	"random": 16,
	"random float": 31.931,
	"bool": false,
	"date": "1992-10-06",
	"regEx": "hellooooooooooooooooooooooooooooooooooooooooooooooooooooooooooooooooooooooooooooooooooooooooooooooooo world",
	"enum": "generator",
	"firstname": "Lucille",
	"lastname": "Abernon",
	"city": "Gaza",
	"country": "Papua New Guinea",
	"countryCode": "MK",
	"email uses current data": "Lucille.Abernon@gmail.com",
	"email from expression": "Lucille.Abernon@yopmail.com",
	"array": [
		"Chickie",
		"Kimberley",
		"Christy",
		"Dennie",
		"Alleen"
	],
	"array of objects": [
		{
			"index": 0,
			"index start at 5": 5
		},
		{
			"index": 1,
			"index start at 5": 6
		},
		{
			"index": 2,
			"index start at 5": 7
		}
	],
	"Veda": {
		"age": 79
	}
}