{
	"random": 14,
	"random float": 39.851,
	"bool": false,
	"date": "1982-04-06",
	"regEx": "helloooooooooooooooooooooooooooooooooooooooooo to you",
	"enum": "online",
	"firstname": "Therine",
	"lastname": "Georas",
	"city": "Mamoudzou",
	"country": "Slovenia",
	"countryCode": "UZ",
	"email uses current data": "Therine.Georas@gmail.com",
	"email from expression": "Therine.Georas@yopmail.com",
	"array": [
		"Ileana",
		"Oralee",
		"Cherilyn",
		"Luci",
		"Dulcinea"
	],
	"array of objects": [
		{
			"index": 0,
			"index start at 5": 5
		},
		{
			"index": 1,
			"index start at 5": 6
		},
		{
			"index": 2,
			"index start at 5": 7
		}
	],
	"Edith": {
		"age": 45
	}
}