{
	"random": 91,
	"random float": 90.159,
	"bool": true,
	"date": "1998-09-04",
	"regEx": "helloooooooooooooooo to you",
	"enum": "online",
	"firstname": "Aryn",
	"lastname": "Pascia",
	"city": "Omdurman",
	"country": "Panama",
	"countryCode": "AD",
	"email uses current data": "Aryn.Pascia@gmail.com",
	"email from expression": "Aryn.Pascia@yopmail.com",
	"array": [
		"Fawne",
		"Aryn",
		"Ashlee",
		"Lacie",
		"Kial"
	],
	"array of objects": [
		{
			"index": 0,
			"index start at 5": 5
		},
		{
			"index": 1,
			"index start at 5": 6
		},
		{
			"index": 2,
			"index start at 5": 7
		}
	],
	"Marleah": {
		"age": 38
	}
}