{
	"random": 19,
	"random float": 4.652,
	"bool": false,
	"date": "1993-06-19",
	"regEx": "hellooooooooooooooooooooooooooooooooooooooooooooooooooooooooooooooooooooooooooooooooooooooooooooo world",
	"enum": "generator",
	"firstname": "Mallory",
	"lastname": "Carleen",
	"city": "Ambon",
	"country": "India",
	"countryCode": "GI",
	"email uses current data": "Mallory.Carleen@gmail.com",
	"email from expression": "Mallory.Carleen@yopmail.com",
	"array": [
		"Myrtice",
		"Libbie",
		"Vita",
		"Kial",
		"Lusa"
	],
	"array of objects": [
		{
			"index": 0,
			"index start at 5": 5
		},
		{
			"index": 1,
			"index start at 5": 6
		},
		{
			"index": 2,
			"index start at 5": 7
		}
	],
	"Jemie": {
		"age": 81
	}
}