{
	"random": 61,
	"random float": 69.909,
	"bool": true,
	"date": "1999-10-27",
	"regEx": "hellooooooooooooooooooooooooooooooooooooooooooooooooooooooooooooooooooooooooooooooooooooo to you",
	"enum": "json",
	"firstname": "Hermione",
	"lastname": "Tayib",
	"city": "Moscow",
	"country": "Mexico",
	"countryCode": "CK",
	"email uses current data": "Hermione.Tayib@gmail.com",
	"email from expression": "Hermione.Tayib@yopmail.com",
	"array": [
		"Janis",
		"Bernardine",
		"Ivett",
		"Devina",
		"Tierney"
	],
	"array of objects": [
		{
			"index": 0,
			"index start at 5": 5
		},
		{
			"index": 1,
			"index start at 5": 6
		},
		{
			"index": 2,
			"index start at 5": 7
		}
	],
	"Melodie": {
		"age": 76
	}
}