{
	"random": 70,
	"random float": 47.592,
	"bool": true,
	"date": "1993-06-01",
	"regEx": "helloooooooooooooo to you",
	"enum": "json",
	"firstname": "Jenda",
	"lastname": "Atcliffe",
	"city": "Udon Thani",
	"country": "Cook Islands",
	"countryCode": "PH",
	"email uses current data": "Jenda.Atcliffe@gmail.com",
	"email from expression": "Jenda.Atcliffe@yopmail.com",
	"array": [
		"Jasmina",
		"Tilly",
		"Ivett",
		"Rori",
		"Miquela"
	],
	"array of objects": [
		{
			"index": 0,
			"index start at 5": 5
		},
		{
			"index": 1,
			"index start at 5": 6
		},
		{
			"index": 2,
			"index start at 5": 7
		}
	],
	"Winifred": {
		"age": 62
	}
}