{
	"random": 82,
	"random float": 56.681,
	"bool": true,
	"date": "1982-02-19",
	"regEx": "hellooooooooooooooooooooooooooooooooooooooooooooooooooooooooooooooooooooooooooooooooooooooooooooooooooo world",
	"enum": "json",
	"firstname": "Mallory",
	"lastname": "Libna",
	"city": "Basra",
	"country": "Guyana",
	"countryCode": "TZ",
	"email uses current data": "Mallory.Libna@gmail.com",
	"email from expression": "Mallory.Libna@yopmail.com",
	"array": [
		"Reeba",
		"Carol-Jean",
		"Christian",
		"Diena",
		"Margette"
	],
	"array of objects": [
		{
			"index": 0,
			"index start at 5": 5
		},
		{
			"index": 1,
			"index start at 5": 6
		},
		{
			"index": 2,
			"index start at 5": 7
		}
	],
	"Annora": {
		"age": 49
	}
}