{
	"random": 44,
	"random float": 40.535,
	"bool": false,
	"date": "1985-02-18",
	"regEx": "helloooooooooooooooooooooooooooooooooooooooooooooooooooo world",
	"enum": "online",
	"firstname": "Sean",
	"lastname": "Palocz",
	"city": "Basra",
	"country": "Saudi Arabia",
	"countryCode": "RE",
	"email uses current data": "Sean.Palocz@gmail.com",
	"email from expression": "Sean.Palocz@yopmail.com",
	"array": [
		"Jaclyn",
		"Amelia",
		"Veda",
		"Allyce",
		"Jean"
	],
	"array of objects": [
		{
			"index": 0,
			"index start at 5": 5
		},
		{
			"index": 1,
			"index start at 5": 6
		},
		{
			"index": 2,
			"index start at 5": 7
		}
	],
	"Esmeralda": {
		"age": 89
	}
}