{
	"random": 45,
	"random float": 4.708,
	"bool": true,
	"date": "1990-10-11",
	"regEx": "hellooooooooooooooooo world",
	"enum": "generator",
	"firstname": "Kara-Lynn",
	"lastname": "Mendez",
	"city": "Birmingham",
	"country": "Madagascar",
	"countryCode": "BS",
	"email uses current data": "Kara-Lynn.Mendez@gmail.com",
	"email from expression": "Kara-Lynn.Mendez@yopmail.com",
	"array": [
		"Ardenia",
		"Nyssa",
		"Ellette",
		"Karina",
		"Carolina"
	],
	"array of objects": [
		{
			"index": 0,
			"index start at 5": 5
		},
		{
			"index": 1,
			"index start at 5": 6
		},
		{
			"index": 2,
			"index start at 5": 7
		}
	],
	"Alyda": {
		"age": 39
	}
}