{
	"random": 81,
	"random float": 37.801,
	"bool": true,
	"date": "1985-07-11",
	"regEx": "hellooooooooooooooooooooooo to you",
	"enum": "json",
	"firstname": "Stephanie",
	"lastname": "Stover",
	"city": "Bratsk",
	"country": "Philippines",
	"countryCode": "JM",
	"email uses current data": "Stephanie.Stover@gmail.com",
	"email from expression": "Stephanie.Stover@yopmail.com",
	"array": [
		"Isa",
		"Queenie",
		"Giustina",
		"Ethel",
		"Gabriellia"
	],
	"array of objects": [
		{
			"index": 0,
			"index start at 5": 5
		},
		{
			"index": 1,
			"index start at 5": 6
		},
		{
			"index": 2,
			"index start at 5": 7
		}
	],
	"Hallie": {
		"age": 73
	}
}