{
	"random": 62,
	"random float": 67.855,
	"bool": true,
	"date": "1998-05-11",
	"regEx": "helloooooooooooooooooooooooooooooooooooooooooooooo to you",
	"enum": "generator",
	"firstname": "Orelia",
	"lastname": "Kimmie",
	"city": "Alofi",
	"country": "Taiwan, Province of China",
	"countryCode": "CC",
	"email uses current data": "Orelia.Kimmie@gmail.com",
	"email from expression": "Orelia.Kimmie@yopmail.com",
	"array": [
		"Raina",
		"Leontine",
		"Doralynne",
		"Mathilda",
		"Trixi"
	],
	"array of objects": [
		{
			"index": 0,
			"index start at 5": 5
		},
		{
			"index": 1,
			"index start at 5": 6
		},
		{
			"index": 2,
			"index start at 5": 7
		}
	],
	"Celisse": {
		"age": 44
	}
}