{
	"random": 62,
	"random float": 68.922,
	"bool": false,
	"date": "1987-06-22",
	"regEx": "hellooooooooooooooooooooooooooooooooo world",
	"enum": "online",
	"firstname": "Danika",
	"lastname": "Christine",
	"city": "Ulan Bator",
	"country": "China",
	"countryCode": "GN",
	"email uses current data": "Danika.Christine@gmail.com",
	"email from expression": "Danika.Christine@yopmail.com",
	"array": [
		"Yolane",
		"Sissy",
		"Luci",
		"Edyth",
		"Jorry"
	],
	"array of objects": [
		{
			"index": 0,
			"index start at 5": 5
		},
		{
			"index": 1,
			"index start at 5": 6
		},
		{
			"index": 2,
			"index start at 5": 7
		}
	],
	"Roxane": {
		"age": 78
	}
}