{
	"random": 83,
	"random float": 89.052,
	"bool": true,
	"date": "1988-07-26",
	"regEx": "helloooooooooooooooooooooooooooo to you",
	"enum": "json",
	"firstname": "Libbie",
	"lastname": "Leary",
	"city": "Seoul",
	"country": "French Guiana",
	"countryCode": "MS",
	"email uses current data": "Libbie.Leary@gmail.com",
	"email from expression": "Libbie.Leary@yopmail.com",
	"array": [
		"Vanessa",
		"Tybie",
		"Tressa",
		"Ardeen",
		"Peri"
	],
	"array of objects": [
		{
			"index": 0,
			"index start at 5": 5
		},
		{
			"index": 1,
			"index start at 5": 6
		},
		{
			"index": 2,
			"index start at 5": 7
		}
	],
	"Alleen": {
		"age": 86
	}
}