{
	"random": 23,
	"random float": 32.825,
	"bool": false,
	"date": "1985-09-15",
	"regEx": "helloooooooooooooooooooooooooooooooooooooooooooooooo world",
	"enum": "online",
	"firstname": "Krystle",
	"lastname": "Isacco",
	"city": "Kharkiv",
	"country": "Guernsey",
	"countryCode": "CY",
	"email uses current data": "Krystle.Isacco@gmail.com",
	"email from expression": "Krystle.Isacco@yopmail.com",
	"array": [
		"Aurore",
		"Marguerite",
		"Jinny",
		"Carmela",
		"Damaris"
	],
	"array of objects": [
		{
			"index": 0,
			"index start at 5": 5
		},
		{
			"index": 1,
			"index start at 5": 6
		},
		{
			"index": 2,
			"index start at 5": 7
		}
	],
	"Jolyn": {
		"age": 21
	}
}