{
	"random": 12,
	"random float": 94.82,
	"bool": true,
	"date": "1980-06-17",
	"regEx": "hellooooooooooooooooooooooooooooooooooooooooooooooooooooooooooooooooooooooooo to you",
	"enum": "online",
	"firstname": "Andeee",
	"lastname": "Sheedy",
	"city": "Port-au-Prince",
	"country": "Eritrea",
	"countryCode": "MP",
	"email uses current data": "Andeee.Sheedy@gmail.com",
	"email from expression": "Andeee.Sheedy@yopmail.com",
	"array": [
		"Jere",
		"Caryl",
		"Norine",
		"Janey",
		"Candi"
	],
	"array of objects": [
		{
			"index": 0,
			"index start at 5": 5
		},
		{
			"index": 1,
			"index start at 5": 6
		},
		{
			"index": 2,
			"index start at 5": 7
		}
	],
	"Tressa": {
		"age": 81
	}
}