{
	"random": 18,
	"random float": 31.691,
	"bool": false,
	"date": "1980-03-20",
	"regEx": "hellooooooooooooooooooooooooooooooooooooooooooooooo world",
	"enum": "json",
	"firstname": "Alex",
	"lastname": "Anyah",
	"city": "Cebu City",
	"country": "Congo, The Democratic Republic of the",
	"countryCode": "SA",
	"email uses current data": "Alex.Anyah@gmail.com",
	"email from expression": "Alex.Anyah@yopmail.com",
	"array": [
		"Starla",
		"Gwyneth",
		"Bettine",
		"Winny",
		"Tonia"
	],
	"array of objects": [
		{
			"index": 0,
			"index start at 5": 5
		},
		{
			"index": 1,
			"index start at 5": 6
		},
		{
			"index": 2,
			"index start at 5": 7
		}
	],
	"Danika": {
		"age": 76
	}
}