{
	"random": 78,
	"random float": 41.563,
	"bool": true,
	"date": "1992-06-06",
	"regEx": "hellooooooooooooooooooooooooooooooooooooooooooooooooooooooooooooooooooooooooooooooooooooooooooooooooo to you",
	"enum": "online",
	"firstname": "Althea",
	"lastname": "Rugen",
	"city": "Sabha",
	"country": "Norway",
	"countryCode": "KN",
	"email uses current data": "Althea.Rugen@gmail.com",
	"email from expression": "Althea.Rugen@yopmail.com",
	"array": [
		"Tierney",
		"Agnese",
		"Felice",
		"Jean",
		"Louella"
	],
	"array of objects": [
		{
			"index": 0,
			"index start at 5": 5
		},
		{
			"index": 1,
			"index start at 5": 6
		},
		{
			"index": 2,
			"index start at 5": 7
		}
	],
	"Elfreda": {
		"age": 22
	}
}