{
	"random": 95,
	"random float": 68.806,
	"bool": true,
	"date": "1995-07-17",
	"regEx": "hellooooooooooooooooooooooooooooooooooooooooooooooo world",
	"enum": "generator",
	"firstname": "Kial",
	"lastname": "Chabot",
	"city": "San Fernando",
	"country": "Chile",
	"countryCode": "KW",
	"email uses current data": "Kial.Chabot@gmail.com",
	"email from expression": "Kial.Chabot@yopmail.com",
	"array": [
		"Ekaterina",
		"Chastity",
		"Kylynn",
		"Eugine",
		"Merry"
	],
	"array of objects": [
		{
			"index": 0,
			"index start at 5": 5
		},
		{
			"index": 1,
			"index start at 5": 6
		},
		{
			"index": 2,
			"index start at 5": 7
		}
	],
	"Kimberley": {
		"age": 63
	}
}