{
	"random": 29,
	"random float": 66.295,
	"bool": false,
	"date": "1997-10-17",
	"regEx": "hellooooooooooooooooooooo to you",
	"enum": "online",
	"firstname": "Caryl",
	"lastname": "Behre",
	"city": "Stepanakert",
	"country": "Iran, Islamic Republic Of",
	"countryCode": "UA",
	"email uses current data": "Caryl.Behre@gmail.com",
	"email from expression": "Caryl.Behre@yopmail.com",
	"array": [
		"Kristan",
		"Collen",
		"Heida",
		"Daryl",
		"Meghann"
	],
	"array of objects": [
		{
			"index": 0,
			"index start at 5": 5
		},
		{
			"index": 1,
			"index start at 5": 6
		},
		{
			"index": 2,
			"index start at 5": 7
		}
	],
	"Kassey": {
		"age": 50
	}
}