{
	"random": 33,
	"random float": 84.239,
	"bool": true,
	"date": "1987-12-19",
	"regEx": "helloooooooooooooooooooo to you",
	"enum": "generator",
	"firstname": "Myriam",
	"lastname": "Roumell",
	"city": "Salt Lake City",
	"country": "Slovakia",
	"countryCode": "SE",
	"email uses current data": "Myriam.Roumell@gmail.com",
	"email from expression": "Myriam.Roumell@yopmail.com",
	"array": [
		"Rosanne",
		"Gui",
		"Yetty",
		"Goldie",
		"Molli"
	],
	"array of objects": [
		{
			"index": 0,
			"index start at 5": 5
		},
		{
			"index": 1,
			"index start at 5": 6
		},
		{
			"index": 2,
			"index start at 5": 7
		}
	],
	"Perry": {
		"age": 55
	}
}