{
	"random": 8,
	"random float": 41.721,
	"bool": false,
	"date": "1988-04-30",
	"regEx": "hellooooooooooooooooooooooooooooooooooooooooooooooo world",
	"enum": "generator",
	"firstname": "Doralynne",
	"lastname": "Kenney",
	"city": "Udon Thani",
	"country": "Ethiopia",
	"countryCode": "SO",
	"email uses current data": "Doralynne.Kenney@gmail.com",
	"email from expression": "Doralynne.Kenney@yopmail.com",
	"array": [
		"Ofilia",
		"Katharina",
		"Ronna",
		"Vere",
		"Georgetta"
	],
	"array of objects": [
		{
			"index": 0,
			"index start at 5": 5
		},
		{
			"index": 1,
			"index start at 5": 6
		},
		{
			"index": 2,
			"index start at 5": 7
		}
	],
	"Isa": {
		"age": 40
	}
}