{
	"random": 98,
	"random float": 19.692,
	"bool": true,
	"date": "1990-08-26",
	"regEx": "hellooooooooooooooooooooooooo to you",
	"enum": "generator",
	"firstname": "Maud",
	"lastname": "Fitzsimmons",
	"city": "Manzini",
	"country": "Argentina",
	"countryCode": "MN",
	"email uses current data": "Maud.Fitzsimmons@gmail.com",
	"email from expression": "Maud.Fitzsimmons@yopmail.com",
	"array": [
		"Chandra",
		"Cecile",
		"Iseabal",
		"Marcy",
		"Britte"
	],
	"array of objects": [
		{
			"index": 0,
			"index start at 5": 5
		},
		{
			"index": 1,
			"index start at 5": 6
		},
		{
			"index": 2,
			"index start at 5": 7
		}
	],
	"Kaia": {
		"age": 60
	}
}