{
	"random": 83,
	"random float": 59.536,
	"bool": false,
	"date": "1999-11-23",
	"regEx": "helloooooooooooooooooooooooooooooooooooooooooooooooooooooooooooooooooooooooooo world",
	"enum": "online",
	"firstname": "Adore",
	"lastname": "Diann",
	"city": "Charlottetown",
	"country": "Colombia",
	"countryCode": "GA",
	"email uses current data": "Adore.Diann@gmail.com",
	"email from expression": "Adore.Diann@yopmail.com",
	"array": [
		"Karena",
		"Dale",
		"Korrie",
		"Adelle",
		"Merrie"
	],
	"array of objects": [
		{
			"index": 0,
			"index start at 5": 5
		},
		{
			"index": 1,
			"index start at 5": 6
		},
		{
			"index": 2,
			"index start at 5": 7
		}
	],
	"Priscilla": {
		"age": 57
	}
}