{
	"random": 7,
	"random float": 8.513,
	"bool": false,
	"date": "1996-04-25",
	"regEx": "helloooooooooooooooooooooooooooooooooooooooooooooooooooooooooooooooooooooooooooooooooooooooooo world",
	"enum": "generator",
	"firstname": "Feliza",
	"lastname": "Hermes",
	"city": "Cleveland",
	"country": "British Indian Ocean Territory",
	"countryCode": "VA",
	"email uses current data": "Feliza.Hermes@gmail.com",
	"email from expression": "Feliza.Hermes@yopmail.com",
	"array": [
		"Lanna",
		"Emelina",
		"June",
		"Ninnetta",
		"Loree"
	],
	"array of objects": [
		{
			"index": 0,
			"index start at 5": 5
		},
		{
			"index": 1,
			"index start at 5": 6
		},
		{
			"index": 2,
			"index start at 5": 7
		}
	],
	"Arlina": {
		"age": 82
	}
}