{
	"random": 56,
	"random float": 44.013,
	"bool": true,
	"date": "1983-03-28",
	"regEx": "hellooooooooooooooooooooooooooooooooooooooooo to you",
	"enum": "generator",
	"firstname": "Gilda",
	"lastname": "Medrek",
	"city": "Abuja",
	"country": "Martinique",
	"countryCode": "BG",
	"email uses current data": "Gilda.Medrek@gmail.com",
	"email from expression": "Gilda.Medrek@yopmail.com",
	"array": [
		"Courtnay",
		"Leona",
		"Alleen",
		"Beth",
		"Nanete"
	],
	"array of objects": [
		{
			"index": 0,
			"index start at 5": 5
		},
		{
			"index": 1,
			"index start at 5": 6
		},
		{
			"index": 2,
			"index start at 5": 7
		}
	],
	"Melisent": {
		"age": 53
	}
}