{
	"random": 7,
	"random float": 35.248,
	"bool": true,
	"date": "1988-08-02",
	"regEx": "helloooooooooooooooooooooooooooooooooooooooooo to you",
	"enum": "generator",
	"firstname": "Ketti",
	"lastname": "Papageno",
	"city": "Tashkent",
	"country": "Tokelau",
	"countryCode": "CR",
	"email uses current data": "Ketti.Papageno@gmail.com",
	"email from expression": "Ketti.Papageno@yopmail.com",
	"array": [
		"Oona",
		"Chloris",
		"Inga",
		"Helsa",
		"Bibby"
	],
	"array of objects": [
		{
			"index": 0,
			"index start at 5": 5
		},
		{
			"index": 1,
			"index start at 5": 6
		},
		{
			"index": 2,
			"index start at 5": 7
		}
	],
	"Paule": {
		"age": 31
	}
}