{
	"random": 80,
	"random float": 62.858,
	"bool": false,
	"date": "1980-03-21",
	"regEx": "helloooooooooooooooooooooooooooooooooooooooooooooooooooooooooooooooooooooooooooooooooooooo to you",
	"enum": "generator",
	"firstname": "Emilia",
	"lastname": "Viddah",
	"city": "Kano",
	"country": "Kyrgyzstan",
	"countryCode": "EG",
	"email uses current data": "Emilia.Viddah@gmail.com",
	"email from expression": "Emilia.Viddah@yopmail.com",
	"array": [
		"Kristina",
		"Albertina",
		"Alex",
		"Melanie",
		"Nananne"
	],
	"array of objects": [
		{
			"index": 0,
			"index start at 5": 5
		},
		{
			"index": 1,
			"index start at 5": 6
		},
		{
			"index": 2,
			"index start at 5": 7
		}
	],
	"Andree": {
		"age": 49
	}
}