{
	"random": 71,
	"random float": 15.318,
	"bool": true,
	"date": "1989-08-25",
	"regEx": "helloooooooooooooooooooooooooooooooooooooooooooooooooooooooooooooooooooooo world",
	"enum": "online",
	"firstname": "Elvira",
	"lastname": "Lynn",
	"city": "Amritsar",
	"country": "British Indian Ocean Territory",
	"countryCode": "AW",
	"email uses current data": "Elvira.Lynn@gmail.com",
	"email from expression": "Elvira.Lynn@yopmail.com",
	"array": [
		"Cassondra",
		"Katleen",
		"Lory",
		"Elora",
		"Adriana"
	],
	"array of objects": [
		{
			"index": 0,
			"index start at 5": 5
		},
		{
			"index": 1,
			"index start at 5": 6
		},
		{
			"index": 2,
			"index start at 5": 7
		}
	],
	"Sonni": {
		"age": 29
	}
}