{
	"random": 6,
	"random float": 8.117,
	"bool": false,
	"date": "1981-12-16",
	"regEx": "helloooooooooooooooooooooooooooooooooooooooooooooooooooooooooooooooooooooooooooooooo to you",
	"enum": "online",
	"firstname": "Dacia",
	"lastname": "Vilma",
	"city": "Cayenne",
	"country": "Ghana",
	"countryCode": "UY",
	"email uses current data": "Dacia.Vilma@gmail.com",
	"email from expression": "Dacia.Vilma@yopmail.com",
	"array": [
		"Dolli",
		"Estell",
		"Maridel",
		"Melanie",
		"Laurene"
	],
	"array of objects": [
		{
			"index": 0,
			"index start at 5": 5
		},
		{
			"index": 1,
			"index start at 5": 6
		},
		{
			"index": 2,
			"index start at 5": 7
		}
	],
	"Ermengarde": {
		"age": 68
	}
}