{
	"random": 8,
	"random float": 29.29,
	"bool": true,
	"date": "1994-07-08",
	"regEx": "helloooooooooooooooooooooooooooooooooooooooooooooo to you",
	"enum": "online",
	"firstname": "Trixi",
	"lastname": "Anastatius",
	"city": "Novosibirsk",
	"country": "Qatar",
	"countryCode": "OM",
	"email uses current data": "Trixi.Anastatius@gmail.com",
	"email from expression": "Trixi.Anastatius@yopmail.com",
	"array": [
		"Candy",
		"Jacenta",
		"Beth",
		"Carilyn",
		"Mathilda"
	],
	"array of objects": [
		{
			"index": 0,
			"index start at 5": 5
		},
		{
			"index": 1,
			"index start at 5": 6
		},
		{
			"index": 2,
			"index start at 5": 7
		}
	],
	"Gui": {
		"age": 86
	}
}