{
	"random": 2,
	"random float": 37.157,
	"bool": false,
	"date": "1997-03-01",
	"regEx": "helloooooooooooooooooooooooooooooooooooooooooooooooooooooooooo to you",
	"enum": "json",
	"firstname": "Trudie",
	"lastname": "Urias",
	"city": "Santa Cruz de la Sierra",
	"country": "Mozambique",
	"countryCode": "GT",
	"email uses current data": "Trudie.Urias@gmail.com",
	"email from expression": "Trudie.Urias@yopmail.com",
	"array": [
		"Allis",
		"Goldie",
		"Marguerite",
		"Britni",
		"Ardeen"
	],
	"array of objects": [
		{
			"index": 0,
			"index start at 5": 5
		},
		{
			"index": 1,
			"index start at 5": 6
		},
		{
			"index": 2,
			"index start at 5": 7
		}
	],
	"Anica": {
		"age": 67
	}
}