{
	"random": 71,
	"random float": 80.451,
	"bool": true,
	"date": "1984-10-30",
	"regEx": "hellooooooooooo to you",
	"enum": "json",
	"firstname": "Fred",
	"lastname": "Bertold",
	"city": "Tskhinvali",
	"country": "United Arab Emirates",
	"countryCode": "AD",
	"email uses current data": "Fred.Bertold@gmail.com",
	"email from expression": "Fred.Bertold@yopmail.com",
	"array": [
		"Rivalee",
		"Binny",
		"Regina",
		"Elsie",
		"Agathe"
	],
	"array of objects": [
		{
			"index": 0,
			"index start at 5": 5
		},
		{
			"index": 1,
			"index start at 5": 6
		},
		{
			"index": 2,
			"index start at 5": 7
		}
	],
	"Cyb": {
		"age": 91
	}
}