{
	"random": 8,
	"random float": 71.356,
	"bool": false,
	"date": "1996-08-27",
	"regEx": "hellooooooooooooooooooooooooooooooooooo world",
	"enum": "generator",
	"firstname": "Mallory",
	"lastname": "Gower",
	"city": "San Fernando",
	"country": "Mali",
	"countryCode": "SB",
	"email uses current data": "Mallory.Gower@gmail.com",
	"email from expression": "Mallory.Gower@yopmail.com",
	"array": [
		"Dawn",
		"Cathyleen",
		"Dotty",
		"Frieda",
		"Ottilie"
	],
	"array of objects": [
		{
			"index": 0,
			"index start at 5": 5
		},
		{
			"index": 1,
			"index start at 5": 6
		},
		{
			"index": 2,
			"index start at 5": 7
		}
	],
	"Donetta": {
		"age": 73
	}
}