{
	"random": 77,
	"random float": 55.187,
	"bool": false,
	"date": "1980-03-06",
	"regEx": "helloooooooooooooooooooooooooooooooooo to you",
	"enum": "json",
	"firstname": "Cyb",
	"lastname": "Eben",
	"city": "Guwahati",
	"country": "Belize",
	"countryCode": "TL",
	"email uses current data": "Cyb.Eben@gmail.com",
	"email from expression": "Cyb.Eben@yopmail.com",
	"array": [
		"Donnie",
		"Glynnis",
		"Cacilie",
		"Meriel",
		"Helena"
	],
	"array of objects": [
		{
			"index": 0,
			"index start at 5": 5
		},
		{
			"index": 1,
			"index start at 5": 6
		},
		{
			"index": 2,
			"index start at 5": 7
		}
	],
	"Joeann": {
		"age": 20
	}
}