{
	"random": 58,
	"random float": 2.611,
	"bool": false,
	"date": "1987-01-17",
	"regEx": "helloooooooooooooooooooooooooooo world",
	"enum": "online",
	"firstname": "Georgina",
	"lastname": "Rogerio",
	"city": "Valletta",
	"country": "Libyan Arab Jamahiriya",
	"countryCode": "VC",
	"email uses current data": "Georgina.Rogerio@gmail.com",
	"email from expression": "Georgina.Rogerio@yopmail.com",
	"array": [
		"Roz",
		"Agathe",
		"Augustine",
		"Catrina",
		"Silvana"
	],
	"array of objects": [
		{
			"index": 0,
			"index start at 5": 5
		},
		{
			"index": 1,
			"index start at 5": 6
		},
		{
			"index": 2,
			"index start at 5": 7
		}
	],
	"Ada": {
		"age": 50
	}
}