{
	"random": 30,
	"random float": 39.678,
	"bool": true,
	"date": "1981-06-19",
	"regEx": "helloooooooo world",
	"enum": "json",
	"firstname": "Anestassia",
	"lastname": "Yate",
	"city": "Stockholm",
	"country": "Germany",
	"countryCode": "BZ",
	"email uses current data": "Anestassia.Yate@gmail.com",
	"email from expression": "Anestassia.Yate@yopmail.com",
	"array": [
		"Louella",
		"Linzy",
		"Fredericka",
		"Gusty",
		"Carilyn"
	],
	"array of objects": [
		{
			"index": 0,
			"index start at 5": 5
		},
		{
			"index": 1,
			"index start at 5": 6
		},
		{
			"index": 2,
			"index start at 5": 7
		}
	],
	"Noelle": {
		"age": 48
	}
}