{
	"random": 58,
	"random float": 57.971,
	"bool": true,
	"date": "1992-05-02",
	"regEx": "hellooooooooooooooooooooooooooooooooooooooooooooooooooooooooo to you",
	"enum": "generator",
	"firstname": "Dione",
	"lastname": "Barney",
	"city": "Denver",
	"country": "Western Sahara",
	"countryCode": "VA",
	"email uses current data": "Dione.Barney@gmail.com",
	"email from expression": "Dione.Barney@yopmail.com",
	"array": [
		"Valera",
		"Marcelline",
		"Blinni",
		"Averyl",
		"Gusty"
	],
	"array of objects": [
		{
			"index": 0,
			"index start at 5": 5
		},
		{
			"index": 1,
			"index start at 5": 6
		},
		{
			"index": 2,
			"index start at 5": 7
		}
	],
	"Liana": {
		"age": 69
	}
}