{
	"random": 20,
	"random float": 7.782,
	"bool": false,
	"date": "1992-08-13",
	"regEx": "hellooooooooooooooooooooooooooooooooooooooooooooooooooooooooooooooooooooooooooooooo to you",
	"enum": "generator",
	"firstname": "Tressa",
	"lastname": "MacIntosh",
	"city": "Tianjin",
	"country": "Antigua and Barbuda",
	"countryCode": "PM",
	"email uses current data": "Tressa.MacIntosh@gmail.com",
	"email from expression": "Tressa.MacIntosh@yopmail.com",
	"array": [
		"Abbie",
		"Petronia",
		"Jobi",
		"Glynnis",
		"Rani"
	],
	"array of objects": [
		{
			"index": 0,
			"index start at 5": 5
		},
		{
			"index": 1,
			"index start at 5": 6
		},
		{
			"index": 2,
			"index start at 5": 7
		}
	],
	"Brianna": {
		"age": 31
	}
}