{
	"random": 69,
	"random float": 53.155,
	"bool": false,
	"date": "1985-11-26",
	"regEx": "helloooooooooooooooooooooooooooooooooooooooooooooooooooooooooooooooo world",
	"enum": "generator",
	"firstname": "Jessy",
	"lastname": "Brieta",
	"city": "Malé",
	"country": "Gibraltar",
	"countryCode": "PL",
	"email uses current data": "Jessy.Brieta@gmail.com",
	"email from expression": "Jessy.Brieta@yopmail.com",
	"array": [
		"Kalina",
		"Candi",
		"Annaliese",
		"Cathie",
		"Zsa Zsa"
	],
	"array of objects": [
		{
			"index": 0,
			"index start at 5": 5
		},
		{
			"index": 1,
			"index start at 5": 6
		},
		{
			"index": 2,
			"index start at 5": 7
		}
	],
	"Betta": {
		"age": 60
	}
}