{
	"random": 78,
	"random float": 96.923,
	"bool": true,
	"date": "1991-01-21",
	"regEx": "helloooooooooooooooooo to you",
	"enum": "online",
	"firstname": "Hope",
	"lastname": "Presber",
	"city": "Lviv",
	"country": "Denmark",
	"countryCode": "SL",
	"email uses current data": "Hope.Presber@gmail.com",
	"email from expression": "Hope.Presber@yopmail.com",
	"array": [
		"Donnie",
		"Camile",
		"Renae",
		"Delilah",
		"Tomasina"
	],
	"array of objects": [
		{
			"index": 0,
			"index start at 5": 5
		},
		{
			"index": 1,
			"index start at 5": 6
		},
		{
			"index": 2,
			"index start at 5": 7
		}
	],
	"Lelah": {
		"age": 56
	}
}