{
	"random": 100,
	"random float": 81.449,
	"bool": true,
	"date": "1997-07-07",
	"regEx": "hellooooooooooooooooooooooooooooooooooooooooooooooooooooooooooooooooooooooooooooooooooooooooooooooooooo to you",
	"enum": "json",
	"firstname": "Alyda",
	"lastname": "Boehike",
	"city": "İzmir",
	"country": "Uzbekistan",
	"countryCode": "IN",
	"email uses current data": "Alyda.Boehike@gmail.com",
	"email from expression": "Alyda.Boehike@yopmail.com",
	"array": [
		"Charmaine",
		"Kenna",
		"Sheree",
		"Charmaine",
		"Paola"
	],
	"array of objects": [
		{
			"index": 0,
			"index start at 5": 5
		},
		{
			"index": 1,
			"index start at 5": 6
		},
		{
			"index": 2,
			"index start at 5": 7
		}
	],
	"Ninnetta": {
		"age": 63
	}
}