{
	"random": 12,
	"random float": 97.227,
	"bool": false,
	"date": "1981-09-25",
	"regEx": "hellooooooooooooooooooooooooooooooooooooooooooooooooooooooooooooo world",
	"enum": "online",
	"firstname": "Kimmy",
	"lastname": "Greyson",
	"city": "Willemstad",
	"country": "Taiwan, Province of China",
	"countryCode": "BV",
	"email uses current data": "Kimmy.Greyson@gmail.com",
	"email from expression": "Kimmy.Greyson@yopmail.com",
	"array": [
		"Aaren",
		"Tressa",
		"Christal",
		"Fidelia",
		"Magdalena"
	],
	"array of objects": [
		{
			"index": 0,
			"index start at 5": 5
		},
		{
			"index": 1,
			"index start at 5": 6
		},
		{
			"index": 2,
			"index start at 5": 7
		}
	],
	"Oona": {
		"age": 38
	}
}