{
	"random": 92,
	"random float": 86.785,
	"bool": true,
	"date": "1995-10-06",
	"regEx": "helloooooooooooooooooooooooooooooooooooooooooooooooooooooooooooooooooooooooooooooooooooooo to you",
	"enum": "generator",
	"firstname": "Raina",
	"lastname": "Ammann",
	"city": "Port of Spain",
	"country": "Antarctica",
	"countryCode": "MU",
	"email uses current data": "Raina.Ammann@gmail.com",
	"email from expression": "Raina.Ammann@yopmail.com",
	"array": [
		"Roslyn",
		"Heida",
		"Tori",
		"Verla",
		"Benita"
	],
	"array of objects": [
		{
			"index": 0,
			"index start at 5": 5
		},
		{
			"index": 1,
			"index start at 5": 6
		},
		{
			"index": 2,
			"index start at 5": 7
		}
	],
	"Kara-Lynn": {
		"age": 79
	}
}