{
	"random": 33,
	"random float": 74.037,
	"bool": false,
	"date": "1988-11-04",
	"regEx": "helloooooooooooooooooooo to you",
	"enum": "json",
	"firstname": "Ottilie",
	"lastname": "Cecile",
	"city": "Casablanca",
	"country": "Armenia",
	"countryCode": "FR",
	"email uses current data": "Ottilie.Cecile@gmail.com",
	"email from expression": "Ottilie.Cecile@yopmail.com",
	"array": [
		"Gilligan",
		"Allis",
		"Jordan",
		"Christian",
		"Oralee"
	],
	"array of objects": [
		{
			"index": 0,
			"index start at 5": 5
		},
		{
			"index": 1,
			"index start at 5": 6
		},
		{
			"index": 2,
			"index start at 5": 7
		}
	],
	"Bobbi": {
		"age": 54
	}
}