{
	"random": 99,
	"random float": 59.55,
	"bool": true,
	"date": "1981-05-07",
	"regEx": "hellooooooooooooooooooooooooooooooooooooooooooooooooooooooooooooooooooooooooooooooooooooooooooooooooooooo to you",
	"enum": "json",
	"firstname": "Celestyna",
	"lastname": "Dearborn",
	"city": "Nashville",
	"country": "Iraq",
	"countryCode": "MP",
	"email uses current data": "Celestyna.Dearborn@gmail.com",
	"email from expression": "Celestyna.Dearborn@yopmail.com",
	"array": [
		"Elka",
		"Hallie",
		"Elise",
		"Alexine",
		"Chere"
	],
	"array of objects": [
		{
			"index": 0,
			"index start at 5": 5
		},
		{
			"index": 1,
			"index start at 5": 6
		},
		{
			"index": 2,
			"index start at 5": 7
		}
	],
	"Arlina": {
		"age": 58
	}
}