{
	"random": 59,
	"random float": 67.413,
	"bool": true,
	"date": "1996-10-13",
	"regEx": "hellooooooooooooooooo to you",
	"enum": "json",
	"firstname": "Constance",
	"lastname": "Dom",
	"city": "Nizhny Novgorod",
	"country": "Nicaragua",
	"countryCode": "AX",
	"email uses current data": "Constance.Dom@gmail.com",
	"email from expression": "Constance.Dom@yopmail.com",
	"array": [
		"Dominga",
		"Barbara",
		"Arlena",
		"Janeczka",
		"Valera"
	],
	"array of objects": [
		{
			"index": 0,
			"index start at 5": 5
		},
		{
			"index": 1,
			"index start at 5": 6
		},
		{
			"index": 2,
			"index start at 5": 7
		}
	],
	"Damaris": {
		"age": 54
	}
}