{
	"random": 31,
	"random float": 40.303,
	"bool": true,
	"date": "1987-09-10",
	"regEx": "hellooooooooooooooooooooooooooooooooooooooooooooooooooooooo to you",
	"enum": "generator",
	"firstname": "Brianna",
	"lastname": "Jaylene",
	"city": "Moroni",
	"country": "Malawi",
	"countryCode": "AQ",
	"email uses current data": "Brianna.Jaylene@gmail.com",
	"email from expression": "Brianna.Jaylene@yopmail.com",
	"array": [
		"Aaren",
		"Karly",
		"Nelle",
		"Leontine",
		"Felice"
	],
	"array of objects": [
		{
			"index": 0,
			"index start at 5": 5
		},
		{
			"index": 1,
			"index start at 5": 6
		},
		{
			"index": 2,
			"index start at 5": 7
		}
	],
	"Moyna": {
		"age": 58
	}
}