{
	"random": 31,
	"random float": 42.341,
	"bool": true,
	"date": "1995-01-12",
	"regEx": "hellooooooooooooo to you",
	"enum": "json",
	"firstname": "Fayre",
	"lastname": "Hedve",
	"city": "Basra",
	"country": "Papua New Guinea",
	"countryCode": "UM",
	"email uses current data": "Fayre.Hedve@gmail.com",
	"email from expression": "Fayre.Hedve@yopmail.com",
	"array": [
		"Valera",
		"Gabriellia",
		"Joleen",
		"Joeann",
		"Layla"
	],
	"array of objects": [
		{
			"index": 0,
			"index start at 5": 5
		},
		{
			"index": 1,
			"index start at 5": 6
		},
		{
			"index": 2,
			"index start at 5": 7
		}
	],
	"Marinna": {
		"age": 54
	}
}