{
	"random": 14,
	"random float": 69.543,
	"bool": false,
	"date": "1993-07-10",
	"regEx": "hellooooooooooooooooooooooooooooooooooo world",
	"enum": "json",
	"firstname": "Anthia",
	"lastname": "Erminia",
	"city": "Semarang",
	"country": "United States",
	"countryCode": "BZ",
	"email uses current data": "Anthia.Erminia@gmail.com",
	"email from expression": "Anthia.Erminia@yopmail.com",
	"array": [
		"Di",
		"Inga",
		"Mary",
		"Lolita",
		"Corry"
	],
	"array of objects": [
		{
			"index": 0,
			"index start at 5": 5
		},
		{
			"index": 1,
			"index start at 5": 6
		},
		{
			"index": 2,
			"index start at 5": 7
		}
	],
	"Morganica": {
		"age": 32
	}
}