{
	"random": 44,
	"random float": 50.809,
	"bool": true,
	"date": "1983-12-25",
	"regEx": "helloooooooooooooooooooooooooooooooooooooooooooooooooooooooooooooooooooooooooooooooooooooooooooooooooo to you",
	"enum": "generator",
	"firstname": "Arlina",
	"lastname": "Johanna",
	"city": "Casablanca",
	"country": "Guadeloupe",
	"countryCode": "UM",
	"email uses current data": "Arlina.Johanna@gmail.com",
	"email from expression": "Arlina.Johanna@yopmail.com",
	"array": [
		"Caryl",
		"Perry",
		"Lulita",
		"Candi",
		"Nannie"
	],
	"array of objects": [
		{
			"index": 0,
			"index start at 5": 5
		},
		{
			"index": 1,
			"index start at 5": 6
		},
		{
			"index": 2,
			"index start at 5": 7
		}
	],
	"Jessy": {
		"age": 93
	}
}