{
	"random": 55,
	"random float": 54.248,
	"bool": true,
	"date": "1982-11-24",
	"regEx": "hellooooooooooooooooooooooooooooooooooooooooooooooooooooooooooooooooooooooooooooooooooooooooooooo world",
	"enum": "generator",
	"firstname": "Sallie",
	"lastname": "Zrike",
	"city": "Vilnius",
	"country": "Tunisia",
	"countryCode": "BB",
	"email uses current data": "Sallie.Zrike@gmail.com",
	"email from expression": "Sallie.Zrike@yopmail.com",
	"array": [
		"Cordi",
		"Sherrie",
		"Janenna",
		"Evita",
		"Roxane"
	],
	"array of objects": [
		{
			"index": 0,
			"index start at 5": 5
		},
		{
			"index": 1,
			"index start at 5": 6
		},
		{
			"index": 2,
			"index start at 5": 7
		}
	],
	"Alameda": {
		"age": 37
	}
}