{
	"random": 68,
	"random float": 32.634,
	"bool": true,
	"date": "1986-09-26",
	"regEx": "helloooooooooooooooooooooooo to you",
	"enum": "generator",
	"firstname": "Sandie",
	"lastname": "Regan",
	"city": "Yokohama",
	"country": "Portugal",
	"countryCode": "GB",
	"email uses current data": "Sandie.Regan@gmail.com",
	"email from expression": "Sandie.Regan@yopmail.com",
	"array": [
		"Alejandra",
		"Rozele",
		"Rozele",
		"Alisha",
		"Sidoney"
	],
	"array of objects": [
		{
			"index": 0,
			"index start at 5": 5
		},
		{
			"index": 1,
			"index start at 5": 6
		},
		{
			"index": 2,
			"index start at 5": 7
		}
	],
	"Brena": {
		"age": 88
	}
}