{
	"random": 64,
	"random float": 43.667,
	"bool": false,
	"date": "1990-02-25",
	"regEx": "helloooooooooooooooooooooooooooooooooooooooooooooooooooooooooooooooooooooooooooooooooooooooooo world",
	"enum": "json",
	"firstname": "Ottilie",
	"lastname": "Ackerley",
	"city": "Liverpool",
	"country": "Eritrea",
	"countryCode": "AG",
	"email uses current data": "Ottilie.Ackerley@gmail.com",
	"email from expression": "Ottilie.Ackerley@yopmail.com",
	"array": [
		"Ivett",
		"Lyssa",
		"Lyssa",
		"Adelle",
		"Queenie"
	],
	"array of objects": [
		{
			"index": 0,
			"index start at 5": 5
		},
		{
			"index": 1,
			"index start at 5": 6
		},
		{
			"index": 2,
			"index start at 5": 7
		}
	],
	"Evita": {
		"age": 37
	}
}