{
	"random": 7,
	"random float": 55.643,
	"bool": false,
	"date": "1989-02-26",
	"regEx": "hellooooooooooooooooooooooooooooooooooooooooooooooooooooooooooooooooooooooooo to you",
	"enum": "json",
	"firstname": "Dagmar",
	"lastname": "Swigart",
	"city": "Regina",
	"country": "Tuvalu",
	"countryCode": "BS",
	"email uses current data": "Dagmar.Swigart@gmail.com",
	"email from expression": "Dagmar.Swigart@yopmail.com",
	"array": [
		"Siana",
		"Albertina",
		"Roberta",
		"Mariele",
		"Sonni"
	],
	"array of objects": [
		{
			"index": 0,
			"index start at 5": 5
		},
		{
			"index": 1,
			"index start at 5": 6
		},
		{
			"index": 2,
			"index start at 5": 7
		}
	],
	"Nerta": {
		"age": 36
	}
}