{
	"random": 44,
	"random float": 40.224,
	"bool": true,
	"date": "1981-07-26",
	"regEx": "helloo to you",
	"enum": "generator",
	"firstname": "Agathe",
	"lastname": "Standing",
	"city": "Kuching",
	"country": "Falkland Islands (Malvinas)",
	"countryCode": "BJ",
	"email uses current data": "Agathe.Standing@gmail.com",
	"email from expression": "Agathe.Standing@yopmail.com",
	"array": [
		"Tierney",
		"Ronna",
		"Anallese",
		"Jacenta",
		"Kellen"
	],
	"array of objects": [
		{
			"index": 0,
			"index start at 5": 5
		},
		{
			"index": 1,
			"index start at 5": 6
		},
		{
			"index": 2,
			"index start at 5": 7
		}
	],
	"Deloria": {
		"age": 69
	}
}