{
	"random": 44,
	"random float": 57.358,
	"bool": false,
	"date": "1991-12-03",
	"regEx": "hellooooooooooooooo world",
	"enum": "online",
	"firstname": "Lita",
	"lastname": "Tiffa",
	"city": "Cuiabá",
	"country": "Costa Rica",
	"countryCode": "KW",
	"email uses current data": "Lita.Tiffa@gmail.com",
	"email from expression": "Lita.Tiffa@yopmail.com",
	"array": [
		"Zaria",
		"Glynnis",
		"Charmaine",
		"Madeleine",
		"Hildegaard"
	],
	"array of objects": [
		{
			"index": 0,
			"index start at 5": 5
		},
		{
			"index": 1,
			"index start at 5": 6
		},
		{
			"index": 2,
			"index start at 5": 7
		}
	],
	"Justinn": {
		"age": 51
	}
}