{
	"random": 25,
	"random float": 12.089,
	"bool": false,
	"date": "1999-09-21",
	"regEx": "helloooooooooooooooooooooooooooooooooooooooooooooooooooooooooooooooooooooooooo world",
	"enum": "json",
	"firstname": "Desirae",
	"lastname": "Vorster",
	"city": "Harbin",
	"country": "Costa Rica",
	"countryCode": "GY",
	"email uses current data": "Desirae.Vorster@gmail.com",
	"email from expression": "Desirae.Vorster@yopmail.com",
	"array": [
		"Meriel",
		"Angelique",
		"Joy",
		"Ericka",
		"Aili"
	],
	"array of objects": [
		{
			"index": 0,
			"index start at 5": 5
		},
		{
			"index": 1,
			"index start at 5": 6
		},
		{
			"index": 2,
			"index start at 5": 7
		}
	],
	"Magdalena": {
		"age": 97
	}
}