{
	"random": 40,
	"random float": 46.374,
	"bool": true,
	"date": "1998-03-14",
	"regEx": "helloooooooooooooooooooooooooooooooooooooooooooooooooooooooooooooooooooooooooooooooooooooooooooooooooooo world",
	"enum": "json",
	"firstname": "Charmaine",
	"lastname": "Neva",
	"city": "Taiyuan",
	"country": "Monaco",
	"countryCode": "MG",
	"email uses current data": "Charmaine.Neva@gmail.com",
	"email from expression": "Charmaine.Neva@yopmail.com",
	"array": [
		"Barbara",
		"Tersina",
		"Sara-Ann",
		"Donnie",
		"Nikki"
	],
	"array of objects": [
		{
			"index": 0,
			"index start at 5": 5
		},
		{
			"index": 1,
			"index start at 5": 6
		},
		{
			"index": 2,
			"index start at 5": 7
		}
	],
	"Rosanne": {
		"age": 36
	}
}