{
	"random": 30,
	"random float": 32.549,
	"bool": false,
	"date": "1996-08-15",
	"regEx": "hellooooooooooooooooooooooooooooooooooooooooooooooooo to you",
	"enum": "online",
	"firstname": "Brana",
	"lastname": "Seumas",
	"city": "Douglas",
	"country": "Armenia",
	"countryCode": "IE",
	"email uses current data": "Brana.Seumas@gmail.com",
	"email from expression": "Brana.Seumas@yopmail.com",
	"array": [
		"Madalyn",
		"Arlena",
		"Nyssa",
		"Juliane",
		"Amara"
	],
	"array of objects": [
		{
			"index": 0,
			"index start at 5": 5
		},
		{
			"index": 1,
			"index start at 5": 6
		},
		{
			"index": 2,
			"index start at 5": 7
		}
	],
	"Elka": {
		"age": 79
	}
}