{
	"random": 14,
	"random float": 89.086,
	"bool": true,
	"date": "1991-06-15",
	"regEx": "hellooooooooooooo to you",
	"enum": "generator",
	"firstname": "Britte",
	"lastname": "Corrine",
	"city": "Weno",
	"country": "Afghanistan",
	"countryCode": "ST",
	"email uses current data": "Britte.Corrine@gmail.com",
	"email from expression": "Britte.Corrine@yopmail.com",
	"array": [
		"Joy",
		"Cyb",
		"Ermengarde",
		"Livvyy",
		"Dede"
	],
	"array of objects": [
		{
			"index": 0,
			"index start at 5": 5
		},
		{
			"index": 1,
			"index start at 5": 6
		},
		{
			"index": 2,
			"index start at 5": 7
		}
	],
	"Evaleen": {
		"age": 23
	}
}