{
	"random": 14,
	"random float": 90.311,
	"bool": false,
	"date": "1982-04-12",
	"regEx": "hellooooooooooooooooooo world",
	"enum": "json",
	"firstname": "Rochette",
	"lastname": "Catie",
	"city": "Ipoh",
	"country": "Mexico",
	"countryCode": "UY",
	"email uses current data": "Rochette.Catie@gmail.com",
	"email from expression": "Rochette.Catie@yopmail.com",
	"array": [
		"Arlena",
		"Vere",
		"Mireielle",
		"Juliane",
		"Alex"
	],
	"array of objects": [
		{
			"index": 0,
			"index start at 5": 5
		},
		{
			"index": 1,
			"index start at 5": 6
		},
		{
			"index": 2,
			"index start at 5": 7
		}
	],
	"Melanie": {
		"age": 54
	}
}