{
	"random": 2,
	"random float": 14.816,
	"bool": true,
	"date": "1985-03-12",
	"regEx": "helloooooooooooooooooo to you",
	"enum": "json",
	"firstname": "Viviene",
	"lastname": "Alisia",
	"city": "Seoul",
	"country": "Uruguay",
	"countryCode": "KN",
	"email uses current data": "Viviene.Alisia@gmail.com",
	"email from expression": "Viviene.Alisia@yopmail.com",
	"array": [
		"Shel",
		"Kamilah",
		"Aili",
		"Dianemarie",
		"Johna"
	],
	"array of objects": [
		{
			"index": 0,
			"index start at 5": 5
		},
		{
			"index": 1,
			"index start at 5": 6
		},
		{
			"index": 2,
			"index start at 5": 7
		}
	],
	"Feliza": {
		"age": 23
	}
}