{
	"random": 7,
	"random float": 20.676,
	"bool": false,
	"date": "1994-05-04",
	"regEx": "hellooooooooooooooooooooooooooooooooooooooooooooooooooooooooooooooooooooooooooooooooooooooooooooooooooo world",
	"enum": "generator",
	"firstname": "Starla",
	"lastname": "Posner",
	"city": "New York City",
	"country": "Viet Nam",
	"countryCode": "NI",
	"email uses current data": "Starla.Posner@gmail.com",
	"email from expression": "Starla.Posner@yopmail.com",
	"array": [
		"Dawn",
		"Emelina",
		"Ellette",
		"Cindelyn",
		"Phedra"
	],
	"array of objects": [
		{
			"index": 0,
			"index start at 5": 5
		},
		{
			"index": 1,
			"index start at 5": 6
		},
		{
			"index": 2,
			"index start at 5": 7
		}
	],
	"Bibby": {
		"age": 71
	}
}