{
	"random": 97,
	"random float": 10.212,
	"bool": false,
	"date": "1980-11-27",
	"regEx": "helloooooooooooooooooooooooooooooooooooooooooooooooo to you",
	"enum": "online",
	"firstname": "Wynne",
	"lastname": "Gamaliel",
	"city": "Chicago",
	"country": "Eritrea",
	"countryCode": "NZ",
	"email uses current data": "Wynne.Gamaliel@gmail.com",
	"email from expression": "Wynne.Gamaliel@yopmail.com",
	"array": [
		"Alyda",
		"Harmonia",
		"Cristabel",
		"Lynde",
		"Winny"
	],
	"array of objects": [
		{
			"index": 0,
			"index start at 5": 5
		},
		{
			"index": 1,
			"index start at 5": 6
		},
		{
			"index": 2,
			"index start at 5": 7
		}
	],
	"Sybille": {
		"age": 50
	}
}