{
	"random": 91,
	"random float": 88.069,
	"bool": false,
	"date": "1985-01-05",
	"regEx": "hellooooooooooooooooooooooooooooooooooooooooooooooooooooooooooooooooooooooooo to you",
	"enum": "generator",
	"firstname": "Robinia",
	"lastname": "Podvin",
	"city": "Port-au-Prince",
	"country": "Tajikistan",
	"countryCode": "KY",
	"email uses current data": "Robinia.Podvin@gmail.com",
	"email from expression": "Robinia.Podvin@yopmail.com",
	"array": [
		"Ann-Marie",
		"Clarice",
		"Doralynne",
		"Alia",
		"Sissy"
	],
	"array of objects": [
		{
			"index": 0,
			"index start at 5": 5
		},
		{
			"index": 1,
			"index start at 5": 6
		},
		{
			"index": 2,
			"index start at 5": 7
		}
	],
	"Elena": {
		"age": 19
	}
}