{
	"random": 96,
	"random float": 27.225,
	"bool": false,
	"date": "1991-11-24",
	"regEx": "helloooooooooooooooooooooooooooooooooooooooooooooooooooooooo world",
	"enum": "generator",
	"firstname": "Tina",
	"lastname": "Thomasina",
	"city": "Patna",
	"country": "Guernsey",
	"countryCode": "BJ",
	"email uses current data": "Tina.Thomasina@gmail.com",
	"email from expression": "Tina.Thomasina@yopmail.com",
	"array": [
		"Sharai",
		"Emilia",
		"Aigneis",
		"Emylee",
		"Minne"
	],
	"array of objects": [
		{
			"index": 0,
			"index start at 5": 5
		},
		{
			"index": 1,
			"index start at 5": 6
		},
		{
			"index": 2,
			"index start at 5": 7
		}
	],
	"Dari": {
		"age": 85
	}
}