{
	"random": 58,
	"random float": 41.477,
	"bool": false,
	"date": "1981-01-09",
	"regEx": "hellooooooooooooooooooooooooooooooooooooooooooooooooooooooooooooooooooooooooooooooooooooooooooooooooooo world",
	"enum": "generator",
	"firstname": "Etta",
	"lastname": "Thunell",
	"city": "Gaziantep",
	"country": "Virgin Islands, U.S.",
	"countryCode": "GB",
	"email uses current data": "Etta.Thunell@gmail.com",
	"email from expression": "Etta.Thunell@yopmail.com",
	"array": [
		"Donetta",
		"Di",
		"Peri",
		"Kassey",
		"Korrie"
	],
	"array of objects": [
		{
			"index": 0,
			"index start at 5": 5
		},
		{
			"index": 1,
			"index start at 5": 6
		},
		{
			"index": 2,
			"index start at 5": 7
		}
	],
	"Carilyn": {
		"age": 24
	}
}