{
	"random": 63,
	"random float": 31.397,
	"bool": true,
	"date": "1987-05-15",
	"regEx": "helloooooooooooooooooooooooooooooooooooooooooooooooooooooooooooooooooooooooo world",
	"enum": "json",
	"firstname": "Britni",
	"lastname": "Muriel",
	"city": "Dresden",
	"country": "Montserrat",
	"countryCode": "GB",
	"email uses current data": "Britni.Muriel@gmail.com",
	"email from expression": "Britni.Muriel@yopmail.com",
	"array": [
		"Wileen",
		"Orsola",
		"Fawne",
		"Kelly",
		"Rosaline"
	],
	"array of objects": [
		{
			"index": 0,
			"index start at 5": 5
		},
		{
			"index": 1,
			"index start at 5": 6
		},
		{
			"index": 2,
			"index start at 5": 7
		}
	],
	"Mady": {
		"age": 35
	}
}