{
	"random": 19,
	"random float": 86.667,
	"bool": false,
	"date": "1998-03-31",
	"regEx": "hellooooooooooooo world",
	"enum": "json",
	"firstname": "Michaelina",
	"lastname": "Goldina",
	"city": "Saskatoon",
	"country": "Argentina",
	"countryCode": "TW",
	"email uses current data": "Michaelina.Goldina@gmail.com",
	"email from expression": "Michaelina.Goldina@yopmail.com",
	"array": [
		"Zia",
		"Anica",
		"Correy",
		"Antonietta",
		"Elyssa"
	],
	"array of objects": [
		{
			"index": 0,
			"index start at 5": 5
		},
		{
			"index": 1,
			"index start at 5": 6
		},
		{
			"index": 2,
			"index start at 5": 7
		}
	],
	"Melodie": {
		"age": 97
	}
}