{
	"random": 59,
	"random float": 53.854,
	"bool": true,
	"date": "1985-08-06",
	"regEx": "hellooooooooooooooooooooooooooooooooooooo world",
	"enum": "generator",
	"firstname": "Leanna",
	"lastname": "Virgin",
	"city": "Reykjavík",
	"country": "Eritrea",
	"countryCode": "ES",
	"email uses current data": "Leanna.Virgin@gmail.com",
	"email from expression": "Leanna.Virgin@yopmail.com",
	"array": [
		"Ana",
		"Sophia",
		"Harrietta",
		"Elise",
		"Rebeca"
	],
	"array of objects": [
		{
			"index": 0,
			"index start at 5": 5
		},
		{
			"index": 1,
			"index start at 5": 6
		},
		{
			"index": 2,
			"index start at 5": 7
		}
	],
	"Jessy": {
		"age": 87
	}
}