{
	"random": 74,
	"random float": 49.173,
	"bool": false,
	"date": "1990-05-21",
	"regEx": "helloo world",
	"enum": "json",
	"firstname": "Catharine",
	"lastname": "Kelula",
	"city": "Campo Grande",
	"country": "Brazil",
	"countryCode": "PG",
	"email uses current data": "Catharine.Kelula@gmail.com",
	"email from expression": "Catharine.Kelula@yopmail.com",
	"array": [
		"Charmaine",
		"Correy",
		"Chere",
		"June",
		"Ardys"
	],
	"array of objects": [
		{
			"index": 0,
			"index start at 5": 5
		},
		{
			"index": 1,
			"index start at 5": 6
		},
		{
			"index": 2,
			"index start at 5": 7
		}
	],
	"Lita": {
		"age": 25
	}
}