{
	"random": 49,
	"random float": 84.67,
	"bool": true,
	"date": "1983-07-10",
	"regEx": "helloooooooooooooooooooooooooooooooooooooooooooooooooo to you",
	"enum": "json",
	"firstname": "Larine",
	"lastname": "Ambrosia",
	"city": "Luxor",
	"country": "RWANDA",
	"countryCode": "ZA",
	"email uses current data": "Larine.Ambrosia@gmail.com",
	"email from expression": "Larine.Ambrosia@yopmail.com",
	"array": [
		"Zia",
		"Gabriellia",
		"Susan",
		"Jenda",
		"Lorie"
	],
	"array of objects": [
		{
			"index": 0,
			"index start at 5": 5
		},
		{
			"index": 1,
			"index start at 5": 6
		},
		{
			"index": 2,
			"index start at 5": 7
		}
	],
	"Cristine": {
		"age": 71
	}
}