{
	"random": 27,
	"random float": 31.232,
	"bool": true,
	"date": "1997-03-16",
	"regEx": "hellooooooooooooooooooooooooooooooooooooooooooooooooooooooooooooooooooooooooooooooooooooooooooo to you",
	"enum": "generator",
	"firstname": "Rayna",
	"lastname": "Joseph",
	"city": "San Juan",
	"country": "India",
	"countryCode": "NR",
	"email uses current data": "Rayna.Joseph@gmail.com",
	"email from expression": "Rayna.Joseph@yopmail.com",
	"array": [
		"Bobinette",
		"Cathyleen",
		"Magdalena",
		"Farrah",
		"Heddie"
	],
	"array of objects": [
		{
			"index": 0,
			"index start at 5": 5
		},
		{
			"index": 1,
			"index start at 5": 6
		},
		{
			"index": 2,
			"index start at 5": 7
		}
	],
	"Camile": {
		"age": 79
	}
}