{
	"random": 34,
	"random float": 91.73,
	"bool": true,
	"date": "1986-06-03",
	"regEx": "helloooooooooooooooooooooooooooooooooooooooooooooooooooooooooooooooooooooooooooooooooooooooooooo to you",
	"enum": "json",
	"firstname": "Evita",
	"lastname": "Wadell",
	"city": "Rawalpindi",
	"country": "Djibouti",
	"countryCode": "TL",
	"email uses current data": "Evita.Wadell@gmail.com",
	"email from expression": "Evita.Wadell@yopmail.com",
	"array": [
		"Raina",
		"Marleah",
		"Lanae",
		"Myrtice",
		"Laure"
	],
	"array of objects": [
		{
			"index": 0,
			"index start at 5": 5
		},
		{
			"index": 1,
			"index start at 5": 6
		},
		{
			"index": 2,
			"index start at 5": 7
		}
	],
	"Valera": {
		"age": 47
	}
}