{
	"random": 59,
	"random float": 45.67,
	"bool": false,
	"date": "1994-02-15",
	"regEx": "helloooooooooooooooooooooooooooooooooooooooooooooooooooooooooooooooooooooooooooooooooooooo to you",
	"enum": "online",
	"firstname": "Michaelina",
	"lastname": "Gherardo",
	"city": "Zapopan",
	"country": "Benin",
	"countryCode": "MO",
	"email uses current data": "Michaelina.Gherardo@gmail.com",
	"email from expression": "Michaelina.Gherardo@yopmail.com",
	"array": [
		"Pamella",
		"Benita",
		"Beatriz",
		"Fayre",
		"Beatriz"
	],
	"array of objects": [
		{
			"index": 0,
			"index start at 5": 5
		},
		{
			"index": 1,
			"index start at 5": 6
		},
		{
			"index": 2,
			"index start at 5": 7
		}
	],
	"Abbie": {
		"age": 43
	}
}