{
	"random": 72,
	"random float": 85.135,
	"bool": true,
	"date": "1985-09-02",
	"regEx": "hellooooooooooooooooooooooooooooooooooooooooooooooooooooooooooooooooooooooo world",
	"enum": "online",
	"firstname": "Vivia",
	"lastname": "Keily",
	"city": "Valdivia",
	"country": "Mexico",
	"countryCode": "TH",
	"email uses current data": "Vivia.Keily@gmail.com",
	"email from expression": "Vivia.Keily@yopmail.com",
	"array": [
		"Nanete",
		"Sindee",
		"Aurore",
		"Brana",
		"Tina"
	],
	"array of objects": [
		{
			"index": 0,
			"index start at 5": 5
		},
		{
			"index": 1,
			"index start at 5": 6
		},
		{
			"index": 2,
			"index start at 5": 7
		}
	],
	"Jan": {
		"age": 48
	}
}