{
	"random": 30,
	"random float": 57.821,
	"bool": true,
	"date": "1987-09-06",
	"regEx": "helloooooooooooooooooooooooooooooooooooooooooooooo to you",
	"enum": "generator",
	"firstname": "Mallory",
	"lastname": "Grobe",
	"city": "Madrid",
	"country": "Papua New Guinea",
	"countryCode": "MU",
	"email uses current data": "Mallory.Grobe@gmail.com",
	"email from expression": "Mallory.Grobe@yopmail.com",
	"array": [
		"Ardeen",
		"Beverley",
		"Rhoda",
		"Clarice",
		"Britni"
	],
	"array of objects": [
		{
			"index": 0,
			"index start at 5": 5
		},
		{
			"index": 1,
			"index start at 5": 6
		},
		{
			"index": 2,
			"index start at 5": 7
		}
	],
	"Penelopa": {
		"age": 54
	}
}