{
	"random": 52,
	"random float": 36.632,
	"bool": false,
	"date": "1998-08-24",
	"regEx": "helloooooooooooooooooooooooooooooooooooooooooo to you",
	"enum": "json",
	"firstname": "Ermengarde",
	"lastname": "Persse",
	"city": "Antwerp",
	"country": "United States Minor Outlying Islands",
	"countryCode": "CD",
	"email uses current data": "Ermengarde.Persse@gmail.com",
	"email from expression": "Ermengarde.Persse@yopmail.com",
	"array": [
		"Doro",
		"Melina",
		"Josephine",
		"Penelopa",
		"Veda"
	],
	"array of objects": [
		{
			"index": 0,
			"index start at 5": 5
		},
		{
			"index": 1,
			"index start at 5": 6
		},
		{
			"index": 2,
			"index start at 5": 7
		}
	],
	"Stacey": {
		"age": 63
	}
}