{
	"random": 56,
	"random float": 31.609,
	"bool": true,
	"date": "1992-04-18",
	"regEx": "hellooooooooooooooooooooooooo world",
	"enum": "online",
	"firstname": "Carly",
	"lastname": "Standing",
	"city": "Freetown",
	"country": "Jordan",
	"countryCode": "ES",
	"email uses current data": "Carly.Standing@gmail.com",
	"email from expression": "Carly.Standing@yopmail.com",
	"array": [
		"Grier",
		"Ulrike",
		"Arabel",
		"Clary",
		"Jordan"
	],
	"array of objects": [
		{
			"index": 0,
			"index start at 5": 5
		},
		{
			"index": 1,
			"index start at 5": 6
		},
		{
			"index": 2,
			"index start at 5": 7
		}
	],
	"Rosabelle": {
		"age": 96
	}
}