{
	"random": 73,
	"random float": 19.933,
	"bool": false,
	"date": "1981-04-05",
	"regEx": "helloooooooooo to you",
	"enum": "generator",
	"firstname": "Mariann",
	"lastname": "Tristram",
	"city": "Iqaluit",
	"country": "Senegal",
	"countryCode": "PM",
	"email uses current data": "Mariann.Tristram@gmail.com",
	"email from expression": "Mariann.Tristram@yopmail.com",
	"array": [
		"Dennie",
		"Demetris",
		"Kalina",
		"Ilse",
		"Vere"
	],
	"array of objects": [
		{
			"index": 0,
			"index start at 5": 5
		},
		{
			"index": 1,
			"index start at 5": 6
		},
		{
			"index": 2,
			"index start at 5": 7
		}
	],
	"Christal": {
		"age": 96
	}
}