{
	"random": 40,
	"random float": 58.352,
	"bool": false,
	"date": "1992-01-20",
	"regEx": "helloooooooooooooooooooooooooooooooooooooooooooooooooooooooooooooooooooooooooooooo world",
	"enum": "json",
	"firstname": "Nariko",
	"lastname": "Helve",
	"city": "The Valley",
	"country": "Grenada",
	"countryCode": "NG",
	"email uses current data": "Nariko.Helve@gmail.com",
	"email from expression": "Nariko.Helve@yopmail.com",
	"array": [
		"Frances",
		"Max",
		"Shaine",
		"Merle",
		"Karly"
	],
	"array of objects": [
		{
			"index": 0,
			"index start at 5": 5
		},
		{
			"index": 1,
			"index start at 5": 6
		},
		{
			"index": 2,
			"index start at 5": 7
		}
	],
	"Lucy": {
		"age": 79
	}
}