{
	"random": 72,
	"random float": 66.319,
	"bool": true,
	"date": "1995-01-10",
	"regEx": "hellooooooooooooooooooooooooooooooooooooooooooooooooooooooooooooooooooo to you",
	"enum": "generator",
	"firstname": "Olivette",
	"lastname": "Tippets",
	"city": "Dallas",
	"country": "Sudan",
	"countryCode": "PS",
	"email uses current data": "Olivette.Tippets@gmail.com",
	"email from expression": "Olivette.Tippets@yopmail.com",
	"array": [
		"Asia",
		"Linzy",
		"Dorene",
		"Clementine",
		"Bobinette"
	],
	"array of objects": [
		{
			"index": 0,
			"index start at 5": 5
		},
		{
			"index": 1,
			"index start at 5": 6
		},
		{
			"index": 2,
			"index start at 5": 7
		}
	],
	"Henriette": {
		"age": 98
	}
}