{
	"random": 53,
	"random float": 54.525,
	"bool": false,
	"date": "1988-02-03",
	"regEx": "helloooooooooooooooooooooooooooooooooooooooooooooooooooooooooooooooooooooooooooooooooooooooooooooooooo to you",
	"enum": "json",
	"firstname": "Kirbee",
	"lastname": "Bonilla",
	"city": "Caracas",
	"country": "Eritrea",
	"countryCode": "GB",
	"email uses current data": "Kirbee.Bonilla@gmail.com",
	"email from expression": "Kirbee.Bonilla@yopmail.com",
	"array": [
		"Iseabal",
		"Mathilda",
		"Sallie",
		"Almeta",
		"Ekaterina"
	],
	"array of objects": [
		{
			"index": 0,
			"index start at 5": 5
		},
		{
			"index": 1,
			"index start at 5": 6
		},
		{
			"index": 2,
			"index start at 5": 7
		}
	],
	"Michaelina": {
		"age": 59
	}
}