{
	"random": 78,
	"random float": 97.93,
	"bool": true,
	"date": "1993-10-02",
	"regEx": "helloooooooooooooooooooooooooooooooooooooo world",
	"enum": "generator",
	"firstname": "Brana",
	"lastname": "Billye",
	"city": "Assis",
	"country": "Togo",
	"countryCode": "FO",
	"email uses current data": "Brana.Billye@gmail.com",
	"email from expression": "Brana.Billye@yopmail.com",
	"array": [
		"Nita",
		"Karina",
		"Frieda",
		"Sidoney",
		"Myriam"
	],
	"array of objects": [
		{
			"index": 0,
			"index start at 5": 5
		},
		{
			"index": 1,
			"index start at 5": 6
		},
		{
			"index": 2,
			"index start at 5": 7
		}
	],
	"Deane": {
		"age": 71
	}
}