{
	"random": 14,
	"random float": 29.326,
	"bool": true,
	"date": "1995-06-17",
	"regEx": "helloooooooooooooooooooooooooooooooooooooooooooooooooooooooooooooooo to you",
	"enum": "online",
	"firstname": "Rozele",
	"lastname": "Eben",
	"city": "South Tarawa",
	"country": "Barbados",
	"countryCode": "HN",
	"email uses current data": "Rozele.Eben@gmail.com",
	"email from expression": "Rozele.Eben@yopmail.com",
	"array": [
		"Gale",
		"Pierette",
		"Dyann",
		"Beverley",
		"Joy"
	],
	"array of objects": [
		{
			"index": 0,
			"index start at 5": 5
		},
		{
			"index": 1,
			"index start at 5": 6
		},
		{
			"index": 2,
			"index start at 5": 7
		}
	],
	"Ana": {
		"age": 22
	}
}