{
	"random": 71,
	"random float": 67.679,
	"bool": true,
	"date": "1989-05-13",
	"regEx": "hellooooooooooooooooooooooooooooooooooo world",
	"enum": "json",
	"firstname": "Edyth",
	"lastname": "Douglass",
	"city": "Kaliningrad",
	"country": "Korea, Democratic People\"S Republic of",
	"countryCode": "QA",
	"email uses current data": "Edyth.Douglass@gmail.com",
	"email from expression": "Edyth.Douglass@yopmail.com",
	"array": [
		"Laure",
		"Deloria",
		"Celisse",
		"Wileen",
		"Ida"
	],
	"array of objects": [
		{
			"index": 0,
			"index start at 5": 5
		},
		{
			"index": 1,
			"index start at 5": 6
		},
		{
			"index": 2,
			"index start at 5": 7
		}
	],
	"Tami": {
		"age": 26
	}
}