{
	"random": 74,
	"random float": 92.247,
	"bool": false,
	"date": "1990-12-21",
	"regEx": "helloooooooooooooooo to you",
	"enum": "generator",
	"firstname": "Belinda",
	"lastname": "Susannah",
	"city": "Surat Thani",
	"country": "United States Minor Outlying Islands",
	"countryCode": "MR",
	"email uses current data": "Belinda.Susannah@gmail.com",
	"email from expression": "Belinda.Susannah@yopmail.com",
	"array": [
		"Morganica",
		"Raf",
		"Melodie",
		"Alyda",
		"Barbi"
	],
	"array of objects": [
		{
			"index": 0,
			"index start at 5": 5
		},
		{
			"index": 1,
			"index start at 5": 6
		},
		{
			"index": 2,
			"index start at 5": 7
		}
	],
	"Caryl": {
		"age": 34
	}
}