{
	"random": 19,
	"random float": 77.678,
	"bool": false,
	"date": "1988-08-04",
	"regEx": "hellooooooooooooooooooooooooooooooooooooooooooooooooooooooooooooooooooooooooooooooooooooooooooooooooooo to you",
	"enum": "json",
	"firstname": "Noelle",
	"lastname": "Stanwood",
	"city": "San Francisco",
	"country": "Yemen",
	"countryCode": "PW",
	"email uses current data": "Noelle.Stanwood@gmail.com",
	"email from expression": "Noelle.Stanwood@yopmail.com",
	"array": [
		"Linet",
		"Dagmar",
		"Dede",
		"Tonia",
		"Neila"
	],
	"array of objects": [
		{
			"index": 0,
			"index start at 5": 5
		},
		{
			"index": 1,
			"index start at 5": 6
		},
		{
			"index": 2,
			"index start at 5": 7
		}
	],
	"Tani": {
		"age": 55
	}
}