{
	"random": 83,
	"random float": 73.949,
	"bool": false,
	"date": "1984-09-10",
	"regEx": "helloooooooooooooooooooooooooooooooooooooooooooooooooooooooooooooooooooooooooooooooooooooooooooooo to you",
	"enum": "generator",
	"firstname": "Joceline",
	"lastname": "Gerge",
	"city": "Phnom Penh",
	"country": "Moldova, Republic of",
	"countryCode": "CA",
	"email uses current data": "Joceline.Gerge@gmail.com",
	"email from expression": "Joceline.Gerge@yopmail.com",
	"array": [
		"Carree",
		"Georgina",
		"Carly",
		"Annecorinne",
		"Joy"
	],
	"array of objects": [
		{
			"index": 0,
			"index start at 5": 5
		},
		{
			"index": 1,
			"index start at 5": 6
		},
		{
			"index": 2,
			"index start at 5": 7
		}
	],
	"Celene": {
		"age": 48
	}
}