{
	"random": 18,
	"random float": 57.368,
	"bool": false,
	"date": "1982-11-09",
	"regEx": "hellooooo world",
	"enum": "online",
	"firstname": "Jillayne",
	"lastname": "Merriott",
	"city": "El Paso",
	"country": "Barbados",
	"countryCode": "NU",
	"email uses current data": "Jillayne.Merriott@gmail.com",
	"email from expression": "Jillayne.Merriott@yopmail.com",
	"array": [
		"Gilligan",
		"Madelle",
		"Dione",
		"Hollie",
		"Fernande"
	],
	"array of objects": [
		{
			"index": 0,
			"index start at 5": 5
		},
		{
			"index": 1,
			"index start at 5": 6
		},
		{
			"index": 2,
			"index start at 5": 7
		}
	],
	"Berget": {
		"age": 97
	}
}