{
	"random": 61,
	"random float": 56.895,
	"bool": false,
	"date": "1980-03-29",
	"regEx": "helloooooooooooooooooooooooooooooooooooooooooooooooooooooooooooooo to you",
	"enum": "online",
	"firstname": "Elsie",
	"lastname": "Mozelle",
	"city": "Nanning",
	"country": "Finland",
	"countryCode": "LS",
	"email uses current data": "Elsie.Mozelle@gmail.com",
	"email from expression": "Elsie.Mozelle@yopmail.com",
	"array": [
		"Fredericka",
		"Marsiella",
		"Myriam",
		"Lesly",
		"Aigneis"
	],
	"array of objects": [
		{
			"index": 0,
			"index start at 5": 5
		},
		{
			"index": 1,
			"index start at 5": 6
		},
		{
			"index": 2,
			"index start at 5": 7
		}
	],
	"Tybie": {
		"age": 91
	}
}