{
	"random": 25,
	"random float": 100.294,
	"bool": false,
	"date": "1998-05-30",
	"regEx": "helloooooooooooooooooooooooooooooooooooooooooooooooooooooooooooooooooooooo to you",
	"enum": "generator",
	"firstname": "Babita",
	"lastname": "Torray",
	"city": "Quebec City",
	"country": "Cuba",
	"countryCode": "PK",
	"email uses current data": "Babita.Torray@gmail.com",
	"email from expression": "Babita.Torray@yopmail.com",
	"array": [
		"Barbi",
		"Sharai",
		"Kristina",
		"Gianina",
		"Estell"
	],
	"array of objects": [
		{
			"index": 0,
			"index start at 5": 5
		},
		{
			"index": 1,
			"index start at 5": 6
		},
		{
			"index": 2,
			"index start at 5": 7
		}
	],
	"Oralee": {
		"age": 92
	}
}