{
	"random": 16,
	"random float": 17.837,
	"bool": false,
	"date": "1997-02-11",
	"regEx": "hellooooooooooooooooooooooooooooooooooooooooooooooooooooooooooooooooooooooooooooooooo to you",
	"enum": "online",
	"firstname": "Rani",
	"lastname": "Granoff",
	"city": "Bratislava",
	"country": "Lithuania",
	"countryCode": "ML",
	"email uses current data": "Rani.Granoff@gmail.com",
	"email from expression": "Rani.Granoff@yopmail.com",
	"array": [
		"Verla",
		"Susette",
		"Britte",
		"Nannie",
		"Ginnie"
	],
	"array of objects": [
		{
			"index": 0,
			"index start at 5": 5
		},
		{
			"index": 1,
			"index start at 5": 6
		},
		{
			"index": 2,
			"index start at 5": 7
		}
	],
	"Margalo": {
		"age": 29
	}
}