{
	"random": 18,
	"random float": 18.202,
	"bool": false,
	"date": "1982-11-20",
	"regEx": "helloooooooooooooooooooooooooooooo to you",
	"enum": "generator",
	"firstname": "Bill",
	"lastname": "Alrich",
	"city": "Port of Spain",
	"country": "Madagascar",
	"countryCode": "BV",
	"email uses current data": "Bill.Alrich@gmail.com",
	"email from expression": "Bill.Alrich@yopmail.com",
	"array": [
		"Darlleen",
		"June",
		"Candi",
		"Gerrie",
		"Trixi"
	],
	"array of objects": [
		{
			"index": 0,
			"index start at 5": 5
		},
		{
			"index": 1,
			"index start at 5": 6
		},
		{
			"index": 2,
			"index start at 5": 7
		}
	],
	"Ayn": {
		"age": 63
	}
}