{
	"random": 19,
	"random float": 24.081,
	"bool": false,
	"date": "1996-05-18",
	"regEx": "helloooooooooooooooooooooooooooooooooooooooooooooo world",
	"enum": "generator",
	"firstname": "Ana",
	"lastname": "Goth",
	"city": "Ushuaia",
	"country": "Hungary",
	"countryCode": "NF",
	"email uses current data": "Ana.Goth@gmail.com",
	"email from expression": "Ana.Goth@yopmail.com",
	"array": [
		"Amalie",
		"Nessie",
		"Consuela",
		"Norine",
		"Linet"
	],
	"array of objects": [
		{
			"index": 0,
			"index start at 5": 5
		},
		{
			"index": 1,
			"index start at 5": 6
		},
		{
			"index": 2,
			"index start at 5": 7
		}
	],
	"Edyth": {
		"age": 76
	}
}