{
	"random": 80,
	"random float": 43.638,
	"bool": true,
	"date": "1981-01-01",
	"regEx": "hellooooooooooooooooooooooooooooooooooooooooooooooooooooooooooooooooooooooooooooooooooooooo to you",
	"enum": "generator",
	"firstname": "Maud",
	"lastname": "Ammann",
	"city": "Newcastle",
	"country": "New Zealand",
	"countryCode": "GA",
	"email uses current data": "Maud.Ammann@gmail.com",
	"email from expression": "Maud.Ammann@yopmail.com",
	"array": [
		"Claudina",
		"Bobbi",
		"Evita",
		"Aubrie",
		"Ada"
	],
	"array of objects": [
		{
			"index": 0,
			"index start at 5": 5
		},
		{
			"index": 1,
			"index start at 5": 6
		},
		{
			"index": 2,
			"index start at 5": 7
		}
	],
	"Lonnie": {
		"age": 41
	}
}