{
	"random": 86,
	"random float": 98.582,
	"bool": true,
	"date": "1994-09-08",
	"regEx": "hellooooooooooooo world",
	"enum": "online",
	"firstname": "Kimberley",
	"lastname": "Stephie",
	"city": "Curitiba",
	"country": "Anguilla",
	"countryCode": "KH",
	"email uses current data": "Kimberley.Stephie@gmail.com",
	"email from expression": "Kimberley.Stephie@yopmail.com",
	"array": [
		"Steffane",
		"Gui",
		"Cristabel",
		"Rori",
		"Rubie"
	],
	"array of objects": [
		{
			"index": 0,
			"index start at 5": 5
		},
		{
			"index": 1,
			"index start at 5": 6
		},
		{
			"index": 2,
			"index start at 5": 7
		}
	],
	"Jemie": {
		"age": 74
	}
}