{
	"random": 60,
	"random float": 32.223,
	"bool": false,
	"date": "1985-11-30",
	"regEx": "helloooooooooooooooooooooooooooooooooooooooooooooooooooooooooooo to you",
	"enum": "generator",
	"firstname": "Dione",
	"lastname": "Ioab",
	"city": "Thiès",
	"country": "Monaco",
	"countryCode": "IO",
	"email uses current data": "Dione.Ioab@gmail.com",
	"email from expression": "Dione.Ioab@yopmail.com",
	"array": [
		"Louella",
		"Rebeca",
		"Vivia",
		"Di",
		"Malina"
	],
	"array of objects": [
		{
			"index": 0,
			"index start at 5": 5
		},
		{
			"index": 1,
			"index start at 5": 6
		},
		{
			"index": 2,
			"index start at 5": 7
		}
	],
	"Lory": {
		"age": 38
	}
}