{
	"random": 14,
	"random float": 31.374,
	"bool": false,
	"date": "1991-10-23",
	"regEx": "hellooooooooooooooooooo to you",
	"enum": "generator",
	"firstname": "Johna",
	"lastname": "Cordi",
	"city": "Tianjin",
	"country": "Kazakhstan",
	"countryCode": "DM",
	"email uses current data": "Johna.Cordi@gmail.com",
	"email from expression": "Johna.Cordi@yopmail.com",
	"array": [
		"Lisette",
		"Allyce",
		"Agnese",
		"Meriel",
		"Livvyy"
	],
	"array of objects": [
		{
			"index": 0,
			"index start at 5": 5
		},
		{
			"index": 1,
			"index start at 5": 6
		},
		{
			"index": 2,
			"index start at 5": 7
		}
	],
	"Farrah": {
		"age": 41
	}
}