{
	"random": 1,
	"random float": 89.381,
	"bool": false,
	"date": "1985-12-02",
	"regEx": "helloooooooooooooooooooooooooooooooo world",
	"enum": "json",
	"firstname": "Leeanne",
	"lastname": "Linehan",
	"city": "Mogadishu",
	"country": "Sweden",
	"countryCode": "IM",
	"email uses current data": "Leeanne.Linehan@gmail.com",
	"email from expression": "Leeanne.Linehan@yopmail.com",
	"array": [
		"Gusella",
		"Millie",
		"Max",
		"Adelle",
		"Gianina"
	],
	"array of objects": [
		{
			"index": 0,
			"index start at 5": 5
		},
		{
			"index": 1,
			"index start at 5": 6
		},
		{
			"index": 2,
			"index start at 5": 7
		}
	],
	"Maridel": {
		"age": 21
	}
}