{
	"random": 38,
	"random float": 94.735,
	"bool": true,
	"date": "1982-02-11",
	"regEx": "hello to you",
	"enum": "online",
	"firstname": "Margalo",
	"lastname": "Marsden",
	"city": "Melekeok",
	"country": "Angola",
	"countryCode": "JO",
	"email uses current data": "Margalo.Marsden@gmail.com",
	"email from expression": "Margalo.Marsden@yopmail.com",
	"array": [
		"Dania",
		"Arlena",
		"Danika",
		"Lilith",
		"Raquela"
	],
	"array of objects": [
		{
			"index": 0,
			"index start at 5": 5
		},
		{
			"index": 1,
			"index start at 5": 6
		},
		{
			"index": 2,
			"index start at 5": 7
		}
	],
	"Oona": {
		"age": 19
	}
}