{
	"random": 83,
	"random float": 9.657,
	"bool": true,
	"date": "1981-03-18",
	"regEx": "hellooooooooooooooooooooooooooooooooooooooooooooooooooooooo to you",
	"enum": "online",
	"firstname": "Sandie",
	"lastname": "Orelee",
	"city": "Maceió",
	"country": "Malta",
	"countryCode": "CO",
	"email uses current data": "Sandie.Orelee@gmail.com",
	"email from expression": "Sandie.Orelee@yopmail.com",
	"array": [
		"Marylou",
		"Anica",
		"Emylee",
		"Emma",
		"Ashlee"
	],
	"array of objects": [
		{
			"index": 0,
			"index start at 5": 5
		},
		{
			"index": 1,
			"index start at 5": 6
		},
		{
			"index": 2,
			"index start at 5": 7
		}
	],
	"Justinn": {
		"age": 20
	}
}