{
	"random": 75,
	"random float": 37.601,
	"bool": true,
	"date": "1995-01-21",
	"regEx": "hellooooooooooooooooooooooooooooooooooooooooooooooooooooooooooooooooooooooooooooooooooooooooooooooo world",
	"enum": "online",
	"firstname": "Cristabel",
	"lastname": "Leonard",
	"city": "Yamoussoukro",
	"country": "Slovakia",
	"countryCode": "UG",
	"email uses current data": "Cristabel.Leonard@gmail.com",
	"email from expression": "Cristabel.Leonard@yopmail.com",
	"array": [
		"Wilma",
		"Dianemarie",
		"Louella",
		"Joceline",
		"Janeczka"
	],
	"array of objects": [
		{
			"index": 0,
			"index start at 5": 5
		},
		{
			"index": 1,
			"index start at 5": 6
		},
		{
			"index": 2,
			"index start at 5": 7
		}
	],
	"Joy": {
		"age": 38
	}
}