{
	"random": 45,
	"random float": 49.59,
	"bool": true,
	"date": "1996-03-27",
	"regEx": "hellooooooooooooooooooooooooooooooooooooo to you",
	"enum": "online",
	"firstname": "Tatiania",
	"lastname": "Letsou",
	"city": "Lahore",
	"country": "Albania",
	"countryCode": "PM",
	"email uses current data": "Tatiania.Letsou@gmail.com",
	"email from expression": "Tatiania.Letsou@yopmail.com",
	"array": [
		"Brandise",
		"Joeann",
		"Codie",
		"Joeann",
		"Rozele"
	],
	"array of objects": [
		{
			"index": 0,
			"index start at 5": 5
		},
		{
			"index": 1,
			"index start at 5": 6
		},
		{
			"index": 2,
			"index start at 5": 7
		}
	],
	"Merle": {
		"age": 36
	}
}