{
	"random": 90,
	"random float": 49.073,
	"bool": false,
	"date": "1999-08-28",
	"regEx": "helloooooooooooooooooooooooooooooooooooooooooooooooooooooooooooooooooooooooo to you",
	"enum": "json",
	"firstname": "Gwyneth",
	"lastname": "Ummersen",
	"city": "Invercargill",
	"country": "Egypt",
	"countryCode": "AR",
	"email uses current data": "Gwyneth.Ummersen@gmail.com",
	"email from expression": "Gwyneth.Ummersen@yopmail.com",
	"array": [
		"Averyl",
		"Tersina",
		"Corina",
		"Lexine",
		"Kaja"
	],
	"array of objects": [
		{
			"index": 0,
			"index start at 5": 5
		},
		{
			"index": 1,
			"index start at 5": 6
		},
		{
			"index": 2,
			"index start at 5": 7
		}
	],
	"Hope": {
		"age": 40
	}
}