{
	"random": 80,
	"random float": 13.807,
	"bool": false,
	"date": "1983-10-22",
	"regEx": "hellooooooooooooooooooooooooooooooooooooooooooooooooooooooooooooooooooooooooooooooooooooooo to you",
	"enum": "json",
	"firstname": "Lynnea",
	"lastname": "Wooster",
	"city": "Greenwich",
	"country": "Western Sahara",
	"countryCode": "RW",
	"email uses current data": "Lynnea.Wooster@gmail.com",
	"email from expression": "Lynnea.Wooster@yopmail.com",
	"array": [
		"Chere",
		"Jere",
		"Jorry",
		"Linet",
		"Dede"
	],
	"array of objects": [
		{
			"index": 0,
			"index start at 5": 5
		},
		{
			"index": 1,
			"index start at 5": 6
		},
		{
			"index": 2,
			"index start at 5": 7
		}
	],
	"Melanie": {
		"age": 41
	}
}