{
	"random": 52,
	"random float": 93.249,
	"bool": false,
	"date": "1998-07-10",
	"regEx": "helloooooooooooooooooooooooooooooooooooooooo to you",
	"enum": "online",
	"firstname": "Evita",
	"lastname": "Amasa",
	"city": "Salt Lake City",
	"country": "Martinique",
	"countryCode": "AX",
	"email uses current data": "Evita.Amasa@gmail.com",
	"email from expression": "Evita.Amasa@yopmail.com",
	"array": [
		"Christian",
		"Kaia",
		"Molli",
		"Kimmy",
		"Gilda"
	],
	"array of objects": [
		{
			"index": 0,
			"index start at 5": 5
		},
		{
			"index": 1,
			"index start at 5": 6
		},
		{
			"index": 2,
			"index start at 5": 7
		}
	],
	"Juliane": {
		"age": 97
	}
}