{
	"random": 55,
	"random float": 78.674,
	"bool": false,
	"date": "1988-06-19",
	"regEx": "hellooooooooooooooooooooooooooooooooooooooooooooooooooooooo to you",
	"enum": "generator",
	"firstname": "Deirdre",
	"lastname": "Malvino",
	"city": "Pretoria",
	"country": "Korea, Republic of",
	"countryCode": "GH",
	"email uses current data": "Deirdre.Malvino@gmail.com",
	"email from expression": "Deirdre.Malvino@yopmail.com",
	"array": [
		"Netty",
		"Gianina",
		"Britte",
		"Jackie",
		"Addia"
	],
	"array of objects": [
		{
			"index": 0,
			"index start at 5": 5
		},
		{
			"index": 1,
			"index start at 5": 6
		},
		{
			"index": 2,
			"index start at 5": 7
		}
	],
	"Trixi": {
		"age": 71
	}
}