{
	"random": 94,
	"random float": 60.734,
	"bool": true,
	"date": "1980-01-03",
	"regEx": "helloooooooooooooooo to you",
	"enum": "json",
	"firstname": "Susette",
	"lastname": "Bandeen",
	"city": "Valparaíso",
	"country": "Namibia",
	"countryCode": "LV",
	"email uses current data": "Susette.Bandeen@gmail.com",
	"email from expression": "Susette.Bandeen@yopmail.com",
	"array": [
		"Vita",
		"Micheline",
		"Emmey",
		"Tori",
		"Jaclyn"
	],
	"array of objects": [
		{
			"index": 0,
			"index start at 5": 5
		},
		{
			"index": 1,
			"index start at 5": 6
		},
		{
			"index": 2,
			"index start at 5": 7
		}
	],
	"Rayna": {
		"age": 89
	}
}