{
	"random": 29,
	"random float": 63.657,
	"bool": true,
	"date": "1993-07-20",
	"regEx": "hellooooooooooooooooo to you",
	"enum": "generator",
	"firstname": "Winny",
	"lastname": "Hoenack",
	"city": "Alexandria",
	"country": "Barbados",
	"countryCode": "ZW",
	"email uses current data": "Winny.Hoenack@gmail.com",
	"email from expression": "Winny.Hoenack@yopmail.com",
	"array": [
		"Babita",
		"Beth",
		"Selma",
		"Ezmeralda",
		"Sadie"
	],
	"array of objects": [
		{
			"index": 0,
			"index start at 5": 5
		},
		{
			"index": 1,
			"index start at 5": 6
		},
		{
			"index": 2,
			"index start at 5": 7
		}
	],
	"Magdalena": {
		"age": 62
	}
}