{
	"random": 80,
	"random float": 25.552,
	"bool": true,
	"date": "1982-05-05",
	"regEx": "helloooooooooooooooooooooooooooooooooooooooooooooooooooooooooooooooooooooooo to you",
	"enum": "online",
	"firstname": "Kelly",
	"lastname": "Iaverne",
	"city": "Nanning",
	"country": "Wallis and Futuna",
	"countryCode": "NC",
	"email uses current data": "Kelly.Iaverne@gmail.com",
	"email from expression": "Kelly.Iaverne@yopmail.com",
	"array": [
		"Ericka",
		"Ada",
		"Glynnis",
		"Pierette",
		"Ann-Marie"
	],
	"array of objects": [
		{
			"index": 0,
			"index start at 5": 5
		},
		{
			"index": 1,
			"index start at 5": 6
		},
		{
			"index": 2,
			"index start at 5": 7
		}
	],
	"Sissy": {
		"age": 49
	}
}