{
	"random": 92,
	"random float": 73.774,
	"bool": false,
	"date": "1995-11-27",
	"regEx": "hellooooooooooooooooooooooooooooooooooooooooooooooooooooooooooooooooooooooooooooooooo world",
	"enum": "generator",
	"firstname": "Shauna",
	"lastname": "Anyah",
	"city": "Port Said",
	"country": "Nepal",
	"countryCode": "RU",
	"email uses current data": "Shauna.Anyah@gmail.com",
	"email from expression": "Shauna.Anyah@yopmail.com",
	"array": [
		"Feliza",
		"Chere",
		"Chrystel",
		"Lilith",
		"Agathe"
	],
	"array of objects": [
		{
			"index": 0,
			"index start at 5": 5
		},
		{
			"index": 1,
			"index start at 5": 6
		},
		{
			"index": 2,
			"index start at 5": 7
		}
	],
	"Jackie": {
		"age": 69
	}
}