{
	"random": 64,
	"random float": 22.377,
	"bool": true,
	"date": "1997-05-19",
	"regEx": "hellooooooooooooo to you",
	"enum": "json",
	"firstname": "Delilah",
	"lastname": "Tufts",
	"city": "Durban",
	"country": "Switzerland",
	"countryCode": "MN",
	"email uses current data": "Delilah.Tufts@gmail.com",
	"email from expression": "Delilah.Tufts@yopmail.com",
	"array": [
		"Charmaine",
		"Netty",
		"Leia",
		"Madelle",
		"Kara-Lynn"
	],
	"array of objects": [
		{
			"index": 0,
			"index start at 5": 5
		},
		{
			"index": 1,
			"index start at 5": 6
		},
		{
			"index": 2,
			"index start at 5": 7
		}
	],
	"Harrietta": {
		"age": 61
	}
}