{
	"random": 15,
	"random float": 60.157,
	"bool": true,
	"date": "1984-03-21",
	"regEx": "helloooooooooooooooooooooooooooooooo to you",
	"enum": "online",
	"firstname": "Jacquetta",
	"lastname": "Whiffen",
	"city": "Melekeok",
	"country": "French Guiana",
	"countryCode": "CO",
	"email uses current data": "Jacquetta.Whiffen@gmail.com",
	"email from expression": "Jacquetta.Whiffen@yopmail.com",
	"array": [
		"Farrah",
		"Gilda",
		"Kaja",
		"Marinna",
		"Cristine"
	],
	"array of objects": [
		{
			"index": 0,
			"index start at 5": 5
		},
		{
			"index": 1,
			"index start at 5": 6
		},
		{
			"index": 2,
			"index start at 5": 7
		}
	],
	"Adele": {
		"age": 50
	}
}