{
	"random": 47,
	"random float": 12.248,
	"bool": true,
	"date": "1991-01-17",
	"regEx": "helloooooooooooooooooooooooooooooooooooooooooooooooooooo to you",
	"enum": "json",
	"firstname": "Mellicent",
	"lastname": "Alisia",
	"city": "Marseille",
	"country": "Comoros",
	"countryCode": "KW",
	"email uses current data": "Mellicent.Alisia@gmail.com",
	"email from expression": "Mellicent.Alisia@yopmail.com",
	"array": [
		"Lucy",
		"Gusella",
		"Sean",
		"Halette",
		"Bernie"
	],
	"array of objects": [
		{
			"index": 0,
			"index start at 5": 5
		},
		{
			"index": 1,
			"index start at 5": 6
		},
		{
			"index": 2,
			"index start at 5": 7
		}
	],
	"Philis": {
		"age": 26
	}
}