{
	"random": 57,
	"random float": 70.313,
	"bool": false,
	"date": "1981-06-25",
	"regEx": "helloooooooooooooooooo to you",
	"enum": "online",
	"firstname": "Maryellen",
	"lastname": "Loring",
	"city": "Surabaya",
	"country": "Bahrain",
	"countryCode": "UY",
	"email uses current data": "Maryellen.Loring@gmail.com",
	"email from expression": "Maryellen.Loring@yopmail.com",
	"array": [
		"Corene",
		"Doralynne",
		"Andree",
		"Oona",
		"Maud"
	],
	"array of objects": [
		{
			"index": 0,
			"index start at 5": 5
		},
		{
			"index": 1,
			"index start at 5": 6
		},
		{
			"index": 2,
			"index start at 5": 7
		}
	],
	"Janis": {
		"age": 75
	}
}