{
	"random": 35,
	"random float": 33.956,
	"bool": false,
	"date": "1991-09-17",
	"regEx": "helloooooooooooooooooooooooooooooooooooooooooooooooooooooooooooooooooooooooooooooooooooooooooooooooooo world",
	"enum": "generator",
	"firstname": "Sissy",
	"lastname": "Alva",
	"city": "Perth",
	"country": "Iceland",
	"countryCode": "IT",
	"email uses current data": "Sissy.Alva@gmail.com",
	"email from expression": "Sissy.Alva@yopmail.com",
	"array": [
		"Claudina",
		"Vinita",
		"Paule",
		"Katharina",
		"Jinny"
	],
	"array of objects": [
		{
			"index": 0,
			"index start at 5": 5
		},
		{
			"index": 1,
			"index start at 5": 6
		},
		{
			"index": 2,
			"index start at 5": 7
		}
	],
	"Gretal": {
		"age": 57
	}
}