{
	"random": 21,
	"random float": 61.791,
	"bool": false,
	"date": "1986-01-24",
	"regEx": "helloooooooooooooooooooooooooooooooooooooooooooooooooooooooooooooooooooooooooooooooooooooooooo to you",
	"enum": "online",
	"firstname": "Meg",
	"lastname": "Simmonds",
	"city": "Edmonton",
	"country": "Poland",
	"countryCode": "SN",
	"email uses current data": "Meg.Simmonds@gmail.com",
	"email from expression": "Meg.Simmonds@yopmail.com",
	"array": [
		"Sam",
		"Ebonee",
		"Suzette",
		"Orsola",
		"Elena"
	],
	"array of objects": [
		{
			"index": 0,
			"index start at 5": 5
		},
		{
			"index": 1,
			"index start at 5": 6
		},
		{
			"index": 2,
			"index start at 5": 7
		}
	],
	"Dede": {
		"age": 71
	}
}