{
	"random": 46,
	"random float": 34.453,
	"bool": false,
	"date": "1982-05-04",
	"regEx": "hellooooooooooooooooooooooooooooooooooooooooooooooooooooooooooooooooo to you",
	"enum": "json",
	"firstname": "Barbara",
	"lastname": "Rosette",
	"city": "St. George's",
	"country": "Bahamas",
	"countryCode": "AM",
	"email uses current data": "Barbara.Rosette@gmail.com",
	"email from expression": "Barbara.Rosette@yopmail.com",
	"array": [
		"Caressa",
		"Ricky",
		"Dominga",
		"Maye",
		"Clary"
	],
	"array of objects": [
		{
			"index": 0,
			"index start at 5": 5
		},
		{
			"index": 1,
			"index start at 5": 6
		},
		{
			"index": 2,
			"index start at 5": 7
		}
	],
	"Fayre": {
		"age": 19
	}
}