{
	"random": 41,
	"random float": 74.099,
	"bool": true,
	"date": "1980-09-09",
	"regEx": "helloooooooooooooooooooooooooo to you",
	"enum": "generator",
	"firstname": "Krystle",
	"lastname": "Durware",
	"city": "Barcelona",
	"country": "Russian Federation",
	"countryCode": "RW",
	"email uses current data": "Krystle.Durware@gmail.com",
	"email from expression": "Krystle.Durware@yopmail.com",
	"array": [
		"Melisent",
		"Mureil",
		"Sidoney",
		"Romona",
		"Alejandra"
	],
	"array of objects": [
		{
			"index": 0,
			"index start at 5": 5
		},
		{
			"index": 1,
			"index start at 5": 6
		},
		{
			"index": 2,
			"index start at 5": 7
		}
	],
	"Edith": {
		"age": 47
	}
}