{
	"random": 73,
	"random float": 28.666,
	"bool": true,
	"date": "1998-02-02",
	"regEx": "helloooooooooooooooooooooooooooooooooooooooooooooooooooooooooooooooooooooooooooooooooooooooooooo world",
	"enum": "json",
	"firstname": "Juliane",
	"lastname": "McGrody",
	"city": "Kathmandu",
	"country": "Estonia",
	"countryCode": "EG",
	"email uses current data": "Juliane.McGrody@gmail.com",
	"email from expression": "Juliane.McGrody@yopmail.com",
	"array": [
		"Dede",
		"Tracey",
		"Ileana",
		"Wanda",
		"Edyth"
	],
	"array of objects": [
		{
			"index": 0,
			"index start at 5": 5
		},
		{
			"index": 1,
			"index start at 5": 6
		},
		{
			"index": 2,
			"index start at 5": 7
		}
	],
	"Jessy": {
		"age": 71
	}
}