{
	"random": 19,
	"random float": 70.121,
	"bool": true,
	"date": "1981-04-28",
	"regEx": "helloooooooooooooooooooooooooooooooooooooooooooooooooooooo world",
	"enum": "generator",
	"firstname": "Lynde",
	"lastname": "Skurnik",
	"city": "Thessaloniki",
	"country": "Germany",
	"countryCode": "IT",
	"email uses current data": "Lynde.Skurnik@gmail.com",
	"email from expression": "Lynde.Skurnik@yopmail.com",
	"array": [
		"Kittie",
		"Carilyn",
		"Wendi",
		"Misha",
		"Emilia"
	],
	"array of objects": [
		{
			"index": 0,
			"index start at 5": 5
		},
		{
			"index": 1,
			"index start at 5": 6
		},
		{
			"index": 2,
			"index start at 5": 7
		}
	],
	"Krystle": {
		"age": 29
	}
}