{
	"random": 96,
	"random float": 64.308,
	"bool": false,
	"date": "1985-04-16",
	"regEx": "helloooooooooooooooooooooooooooooooooooooooooooooooooooooooooooooooooooo to you",
	"enum": "json",
	"firstname": "Magdalena",
	"lastname": "Argus",
	"city": "Medan",
	"country": "Poland",
	"countryCode": "AQ",
	"email uses current data": "Magdalena.Argus@gmail.com",
	"email from expression": "Magdalena.Argus@yopmail.com",
	"array": [
		"Chandra",
		"Kimmy",
		"Fanny",
		"Therine",
		"Roseline"
	],
	"array of objects": [
		{
			"index": 0,
			"index start at 5": 5
		},
		{
			"index": 1,
			"index start at 5": 6
		},
		{
			"index": 2,
			"index start at 5": 7
		}
	],
	"Elmira": {
		"age": 98
	}
}