{
	"random": 92,
	"random float": 25.388,
	"bool": true,
	"date": "1980-08-14",
	"regEx": "helloooooooo world",
	"enum": "generator",
	"firstname": "Barbara",
	"lastname": "Dearborn",
	"city": "Palembang",
	"country": "Ukraine",
	"countryCode": "GQ",
	"email uses current data": "Barbara.Dearborn@gmail.com",
	"email from expression": "Barbara.Dearborn@yopmail.com",
	"array": [
		"Elbertina",
		"Janey",
		"Deane",
		"Genovera",
		"Lulita"
	],
	"array of objects": [
		{
			"index": 0,
			"index start at 5": 5
		},
		{
			"index": 1,
			"index start at 5": 6
		},
		{
			"index": 2,
			"index start at 5": 7
		}
	],
	"Merle": {
		"age": 52
	}
}