{
	"random": 60,
	"random float": 19.522,
	"bool": false,
	"date": "1995-03-23",
	"regEx": "helloooooooooo to you",
	"enum": "online",
	"firstname": "Layla",
	"lastname": "Bach",
	"city": "Pekanbaru",
	"country": "Bahrain",
	"countryCode": "BD",
	"email uses current data": "Layla.Bach@gmail.com",
	"email from expression": "Layla.Bach@yopmail.com",
	"array": [
		"Zsa Zsa",
		"Odessa",
		"Gisela",
		"Maye",
		"Brynna"
	],
	"array of objects": [
		{
			"index": 0,
			"index start at 5": 5
		},
		{
			"index": 1,
			"index start at 5": 6
		},
		{
			"index": 2,
			"index start at 5": 7
		}
	],
	"Wendi": {
		"age": 79
	}
}