{
	"random": 93,
	"random float": 13.151,
	"bool": false,
	"date": "1995-12-28",
	"regEx": "hellooooooooooooooooooooooooooooooooooooooooooooooooooooooooooooooooooooooooooooo to you",
	"enum": "generator",
	"firstname": "Fina",
	"lastname": "Earlie",
	"city": "Lilongwe",
	"country": "Dominican Republic",
	"countryCode": "FO",
	"email uses current data": "Fina.Earlie@gmail.com",
	"email from expression": "Fina.Earlie@yopmail.com",
	"array": [
		"Farrah",
		"Vinita",
		"Ardeen",
		"Celene",
		"Tina"
	],
	"array of objects": [
		{
			"index": 0,
			"index start at 5": 5
		},
		{
			"index": 1,
			"index start at 5": 6
		},
		{
			"index": 2,
			"index start at 5": 7
		}
	],
	"Mellicent": {
		"age": 24
	}
}