{
	"random": 4,
	"random float": 40.144,
	"bool": false,
	"date": "1986-01-05",
	"regEx": "helloooooooooooooooooooooooooooooooooooooooooooooooooooooooooooooooooo world",
	"enum": "json",
	"firstname": "Marcy",
	"lastname": "Juliet",
	"city": "Vientiane",
	"country": "Russian Federation",
	"countryCode": "VU",
	"email uses current data": "Marcy.Juliet@gmail.com",
	"email from expression": "Marcy.Juliet@yopmail.com",
	"array": [
		"Arlena",
		"Nerta",
		"Dede",
		"Fredericka",
		"Nikki"
	],
	"array of objects": [
		{
			"index": 0,
			"index start at 5": 5
		},
		{
			"index": 1,
			"index start at 5": 6
		},
		{
			"index": 2,
			"index start at 5": 7
		}
	],
	"Annecorinne": {
		"age": 91
	}
}