{
	"random": 85,
	"random float": 57.169,
	"bool": true,
	"date": "1982-12-15",
	"regEx": "hellooooooooooooooooooooooooooooooooooooooooooooooooooooooooooooooooooooooo world",
	"enum": "json",
	"firstname": "Molli",
	"lastname": "Vanni",
	"city": "South Tarawa",
	"country": "China",
	"countryCode": "MZ",
	"email uses current data": "Molli.Vanni@gmail.com",
	"email from expression": "Molli.Vanni@yopmail.com",
	"array": [
		"Blinni",
		"Rosabelle",
		"Kore",
		"Lauryn",
		"Dagmar"
	],
	"array of objects": [
		{
			"index": 0,
			"index start at 5": 5
		},
		{
			"index": 1,
			"index start at 5": 6
		},
		{
			"index": 2,
			"index start at 5": 7
		}
	],
	"Elie": {
		"age": 77
	}
}