{
	"random": 97,
	"random float": 38.984,
	"bool": true,
	"date": "1982-11-17",
	"regEx": "hellooooooooooooo to you",
	"enum": "generator",
	"firstname": "Jemie",
	"lastname": "Zetta",
	"city": "Dubai",
	"country": "Greenland",
	"countryCode": "AE",
	"email uses current data": "Jemie.Zetta@gmail.com",
	"email from expression": "Jemie.Zetta@yopmail.com",
	"array": [
		"Jorry",
		"Trixi",
		"Bibby",
		"Ekaterina",
		"Rozele"
	],
	"array of objects": [
		{
			"index": 0,
			"index start at 5": 5
		},
		{
			"index": 1,
			"index start at 5": 6
		},
		{
			"index": 2,
			"index start at 5": 7
		}
	],
	"Jenda": {
		"age": 33
	}
}