{
	"random": 84,
	"random float": 47.204,
	"bool": true,
	"date": "1984-06-20",
	"regEx": "helloooooooooooooooooooooooooooooooooooooooooooooooooooo world",
	"enum": "json",
	"firstname": "Lusa",
	"lastname": "Lewes",
	"city": "El Paso",
	"country": "San Marino",
	"countryCode": "PE",
	"email uses current data": "Lusa.Lewes@gmail.com",
	"email from expression": "Lusa.Lewes@yopmail.com",
	"array": [
		"Ricky",
		"Ninnetta",
		"Kary",
		"Michaelina",
		"Robbi"
	],
	"array of objects": [
		{
			"index": 0,
			"index start at 5": 5
		},
		{
			"index": 1,
			"index start at 5": 6
		},
		{
			"index": 2,
			"index start at 5": 7
		}
	],
	"Marti": {
		"age": 63
	}
}