{
	"random": 99,
	"random float": 18.674,
	"bool": true,
	"date": "1980-09-05",
	"regEx": "hellooooooooooooooooooooooooooooooooooooooooooooooooooooooooooooooooooooooooooooooooooooooooooooo to you",
	"enum": "json",
	"firstname": "Adriana",
	"lastname": "Drus",
	"city": "Bishkek",
	"country": "Germany",
	"countryCode": "BD",
	"email uses current data": "Adriana.Drus@gmail.com",
	"email from expression": "Adriana.Drus@yopmail.com",
	"array": [
		"Atlanta",
		"Maud",
		"Kaja",
		"Gilligan",
		"Linzy"
	],
	"array of objects": [
		{
			"index": 0,
			"index start at 5": 5
		},
		{
			"index": 1,
			"index start at 5": 6
		},
		{
			"index": 2,
			"index start at 5": 7
		}
	],
	"Maye": {
		"age": 22
	}
}