{
	"random": 52,
	"random float": 81.301,
	"bool": false,
	"date": "1997-10-20",
	"regEx": "hellooooooooooooooooooooooooooooooooooooooooooooooooo world",
	"enum": "generator",
	"firstname": "Kimberley",
	"lastname": "Gerge",
	"city": "Dhaka",
	"country": "Swaziland",
	"countryCode": "TZ",
	"email uses current data": "Kimberley.Gerge@gmail.com",
	"email from expression": "Kimberley.Gerge@yopmail.com",
	"array": [
		"Inga",
		"Jolyn",
		"Blinni",
		"Cam",
		"Ninnetta"
	],
	"array of objects": [
		{
			"index": 0,
			"index start at 5": 5
		},
		{
			"index": 1,
			"index start at 5": 6
		},
		{
			"index": 2,
			"index start at 5": 7
		}
	],
	"Adore": {
		"age": 60
	}
}