{
	"random": 99,
	"random float": 31.388,
	"bool": true,
	"date": "1984-08-30",
	"regEx": "helloooooooooooooooooooooooooooooooooooooooooooooooooooooooooooooooooooooooooooooooooooooooooooooooooooo world",
	"enum": "json",
	"firstname": "Olwen",
	"lastname": "Morehouse",
	"city": "Nouméa",
	"country": "Saudi Arabia",
	"countryCode": "DM",
	"email uses current data": "Olwen.Morehouse@gmail.com",
	"email from expression": "Olwen.Morehouse@yopmail.com",
	"array": [
		"Mary",
		"Brietta",
		"Codie",
		"Christy",
		"Gwenneth"
	],
	"array of objects": [
		{
			"index": 0,
			"index start at 5": 5
		},
		{
			"index": 1,
			"index start at 5": 6
		},
		{
			"index": 2,
			"index start at 5": 7
		}
	],
	"Gabriellia": {
		"age": 82
	}
}