{
	"random": 79,
	"random float": 51.182,
	"bool": true,
	"date": "1994-04-16",
	"regEx": "helloooooo to you",
	"enum": "online",
	"firstname": "Alie",
	"lastname": "Oriana",
	"city": "Denver",
	"country": "Bosnia and Herzegovina",
	"countryCode": "JP",
	"email uses current data": "Alie.Oriana@gmail.com",
	"email from expression": "Alie.Oriana@yopmail.com",
	"array": [
		"Aeriela",
		"Lynea",
		"Hermione",
		"Ninnetta",
		"Heida"
	],
	"array of objects": [
		{
			"index": 0,
			"index start at 5": 5
		},
		{
			"index": 1,
			"index start at 5": 6
		},
		{
			"index": 2,
			"index start at 5": 7
		}
	],
	"Caryl": {
		"age": 25
	}
}