{
	"random": 57,
	"random float": 38.251,
	"bool": false,
	"date": "1989-04-23",
	"regEx": "helloooo world",
	"enum": "online",
	"firstname": "Marinna",
	"lastname": "Ophelia",
	"city": "Huế",
	"country": "Central African Republic",
	"countryCode": "AZ",
	"email uses current data": "Marinna.Ophelia@gmail.com",
	"email from expression": "Marinna.Ophelia@yopmail.com",
	"array": [
		"Merci",
		"Ileana",
		"Dorothy",
		"Leanna",
		"Valli"
	],
	"array of objects": [
		{
			"index": 0,
			"index start at 5": 5
		},
		{
			"index": 1,
			"index start at 5": 6
		},
		{
			"index": 2,
			"index start at 5": 7
		}
	],
	"Joeann": {
		"age": 31
	}
}