{
	"random": 96,
	"random float": 31.185,
	"bool": false,
	"date": "1980-04-05",
	"regEx": "helloooooooooooooooooooooooooooooooooooooooooooooooooooooooooooooooooooooooooooooooooooooooooooo to you",
	"enum": "json",
	"firstname": "Madeleine",
	"lastname": "Lorenz",
	"city": "Banjul",
	"country": "Gabon",
	"countryCode": "DE",
	"email uses current data": "Madeleine.Lorenz@gmail.com",
	"email from expression": "Madeleine.Lorenz@yopmail.com",
	"array": [
		"Korrie",
		"Beatriz",
		"Lolita",
		"Louella",
		"Wanda"
	],
	"array of objects": [
		{
			"index": 0,
			"index start at 5": 5
		},
		{
			"index": 1,
			"index start at 5": 6
		},
		{
			"index": 2,
			"index start at 5": 7
		}
	],
	"Janenna": {
		"age": 32
	}
}