{
	"random": 100,
	"random float": 80.172,
	"bool": false,
	"date": "1988-07-28",
	"regEx": "hellooo to you",
	"enum": "online",
	"firstname": "Ileana",
	"lastname": "Annabella",
	"city": "Hanga Roa",
	"country": "Kenya",
	"countryCode": "TV",
	"email uses current data": "Ileana.Annabella@gmail.com",
	"email from expression": "Ileana.Annabella@yopmail.com",
	"array": [
		"Priscilla",
		"Hope",
		"Randa",
		"Tracey",
		"Keelia"
	],
	"array of objects": [
		{
			"index": 0,
			"index start at 5": 5
		},
		{
			"index": 1,
			"index start at 5": 6
		},
		{
			"index": 2,
			"index start at 5": 7
		}
	],
	"Jean": {
		"age": 97
	}
}