{
	"random": 38,
	"random float": 2.99,
	"bool": false,
	"date": "1999-08-15",
	"regEx": "helloooooooooooooooooooooooooooooooo to you",
	"enum": "json",
	"firstname": "Charmaine",
	"lastname": "Ardeha",
	"city": "Charlotte Amalie",
	"country": "China",
	"countryCode": "GW",
	"email uses current data": "Charmaine.Ardeha@gmail.com",
	"email from expression": "Charmaine.Ardeha@yopmail.com",
	"array": [
		"Genovera",
		"Edyth",
		"Tarra",
		"Dede",
		"Elsie"
	],
	"array of objects": [
		{
			"index": 0,
			"index start at 5": 5
		},
		{
			"index": 1,
			"index start at 5": 6
		},
		{
			"index": 2,
			"index start at 5": 7
		}
	],
	"Shauna": {
		"age": 71
	}
}