{
	"random": 15,
	"random float": 26.191,
	"bool": false,
	"date": "1982-08-10",
	"regEx": "helloooooooooooooooooooooooooooooooooooooooooooooooooooooooooooooooooooooo to you",
	"enum": "online",
	"firstname": "Adore",
	"lastname": "Brandice",
	"city": "Multan",
	"country": "Liechtenstein",
	"countryCode": "JM",
	"email uses current data": "Adore.Brandice@gmail.com",
	"email from expression": "Adore.Brandice@yopmail.com",
	"array": [
		"Elyssa",
		"Ashlee",
		"Eadie",
		"Ebonee",
		"Roz"
	],
	"array of objects": [
		{
			"index": 0,
			"index start at 5": 5
		},
		{
			"index": 1,
			"index start at 5": 6
		},
		{
			"index": 2,
			"index start at 5": 7
		}
	],
	"Arlina": {
		"age": 19
	}
}