{
	"random": 98,
	"random float": 48.787,
	"bool": true,
	"date": "1986-04-13",
	"regEx": "hellooooooooooooo to you",
	"enum": "generator",
	"firstname": "Misha",
	"lastname": "Moseley",
	"city": "Tucson",
	"country": "Turkmenistan",
	"countryCode": "DO",
	"email uses current data": "Misha.Moseley@gmail.com",
	"email from expression": "Misha.Moseley@yopmail.com",
	"array": [
		"Kimberley",
		"Jinny",
		"Rhea",
		"Leanna",
		"Felice"
	],
	"array of objects": [
		{
			"index": 0,
			"index start at 5": 5
		},
		{
			"index": 1,
			"index start at 5": 6
		},
		{
			"index": 2,
			"index start at 5": 7
		}
	],
	"Reeba": {
		"age": 88
	}
}