{
	"random": 1,
	"random float": 16.689,
	"bool": false,
	"date": "1983-05-16",
	"regEx": "hellooooooooooooo world",
	"enum": "generator",
	"firstname": "Annice",
	"lastname": "Joeann",
	"city": "Chengdu",
	"country": "Qatar",
	"countryCode": "TM",
	"email uses current data": "Annice.Joeann@gmail.com",
	"email from expression": "Annice.Joeann@yopmail.com",
	"array": [
		"Lindie",
		"Sandie",
		"Aaren",
		"Kial",
		"Deirdre"
	],
	"array of objects": [
		{
			"index": 0,
			"index start at 5": 5
		},
		{
			"index": 1,
			"index start at 5": 6
		},
		{
			"index": 2,
			"index start at 5": 7
		}
	],
	"Noelle": {
		"age": 19
	}
}