{
	"random": 28,
	"random float": 37.679,
	"bool": false,
	"date": "1984-04-18",
	"regEx": "hellooooooooooooooooooooooooooooooooooooooooooooooooooooooo to you",
	"enum": "generator",
	"firstname": "Jany",
	"lastname": "Hewitt",
	"city": "Singapore",
	"country": "Kazakhstan",
	"countryCode": "MR",
	"email uses current data": "Jany.Hewitt@gmail.com",
	"email from expression": "Jany.Hewitt@yopmail.com",
	"array": [
		"Benita",
		"Yvonne",
		"Malina",
		"Ardeen",
		"Donetta"
	],
	"array of objects": [
		{
			"index": 0,
			"index start at 5": 5
		},
		{
			"index": 1,
			"index start at 5": 6
		},
		{
			"index": 2,
			"index start at 5": 7
		}
	],
	"Laurene": {
		"age": 43
	}
}