{
	"random": 6,
	"random float": 47.432,
	"bool": true,
	"date": "1987-09-13",
	"regEx": "hellooooooooooooooooooooooooooooooo world",
	"enum": "online",
	"firstname": "Merrie",
	"lastname": "Parette",
	"city": "Cali",
	"country": "Turkmenistan",
	"countryCode": "UA",
	"email uses current data": "Merrie.Parette@gmail.com",
	"email from expression": "Merrie.Parette@yopmail.com",
	"array": [
		"Mariann",
		"Nickie",
		"Lizzie",
		"Silvana",
		"Wendi"
	],
	"array of objects": [
		{
			"index": 0,
			"index start at 5": 5
		},
		{
			"index": 1,
			"index start at 5": 6
		},
		{
			"index": 2,
			"index start at 5": 7
		}
	],
	"Carree": {
		"age": 54
	}
}