{
	"random": 29,
	"random float": 86.645,
	"bool": false,
	"date": "1991-10-04",
	"regEx": "helloooooooooooooooooooooooooooooooooooooooooooooooooooooooooooooooooooooooooooooooooooooooooooooooooooo to you",
	"enum": "online",
	"firstname": "Gilligan",
	"lastname": "Mozelle",
	"city": "Tagbilaran",
	"country": "Guinea",
	"countryCode": "RO",
	"email uses current data": "Gilligan.Mozelle@gmail.com",
	"email from expression": "Gilligan.Mozelle@yopmail.com",
	"array": [
		"Danny",
		"Minda",
		"Concettina",
		"Christy",
		"Laurene"
	],
	"array of objects": [
		{
			"index": 0,
			"index start at 5": 5
		},
		{
			"index": 1,
			"index start at 5": 6
		},
		{
			"index": 2,
			"index start at 5": 7
		}
	],
	"Trixi": {
		"age": 66
	}
}