{
	"random": 14,
	"random float": 73.586,
	"bool": false,
	"date": "1980-11-23",
	"regEx": "hellooooooooooooooooooooooooooooooooooooooooooooooooooooooooo to you",
	"enum": "json",
	"firstname": "Kellen",
	"lastname": "Peg",
	"city": "Zürich",
	"country": "Marshall Islands",
	"countryCode": "LC",
	"email uses current data": "Kellen.Peg@gmail.com",
	"email from expression": "Kellen.Peg@yopmail.com",
	"array": [
		"Stephanie",
		"Cherilyn",
		"Paulita",
		"Dawn",
		"Madeleine"
	],
	"array of objects": [
		{
			"index": 0,
			"index start at 5": 5
		},
		{
			"index": 1,
			"index start at 5": 6
		},
		{
			"index": 2,
			"index start at 5": 7
		}
	],
	"Queenie": {
		"age": 32
	}
}