{
	"random": 34,
	"random float": 2.933,
	"bool": false,
	"date": "1996-10-01",
	"regEx": "hellooooooooooooooooooooooooooooooooooooooooooooooooooooooooooooooooooooooooooooooooooooo to you",
	"enum": "online",
	"firstname": "Nessie",
	"lastname": "Bertold",
	"city": "Stockholm",
	"country": "Christmas Island",
	"countryCode": "JM",
	"email uses current data": "Nessie.Bertold@gmail.com",
	"email from expression": "Nessie.Bertold@yopmail.com",
	"array": [
		"Perry",
		"Eolanda",
		"Verla",
		"Letizia",
		"Florie"
	],
	"array of objects": [
		{
			"index": 0,
			"index start at 5": 5
		},
		{
			"index": 1,
			"index start at 5": 6
		},
		{
			"index": 2,
			"index start at 5": 7
		}
	],
	"Chandra": {
		"age": 63
	}
}