{
	"random": 42,
	"random float": 86.915,
	"bool": true,
	"date": "1986-01-17",
	"regEx": "hellooooooooooooooooooooooooooooooooooooooooooooooooooooooooooooooooooooooooooooooooooooooooo to you",
	"enum": "online",
	"firstname": "Britni",
	"lastname": "Lymann",
	"city": "Lviv",
	"country": "AndorrA",
	"countryCode": "QA",
	"email uses current data": "Britni.Lymann@gmail.com",
	"email from expression": "Britni.Lymann@yopmail.com",
	"array": [
		"Verla",
		"Lisette",
		"Sallie",
		"Gui",
		"Jeanna"
	],
	"array of objects": [
		{
			"index": 0,
			"index start at 5": 5
		},
		{
			"index": 1,
			"index start at 5": 6
		},
		{
			"index": 2,
			"index start at 5": 7
		}
	],
	"Loree": {
		"age": 42
	}
}