{
	"random": 38,
	"random float": 57.321,
	"bool": true,
	"date": "1983-03-21",
	"regEx": "helloooooooooooooooooooooooooooooooooooooooooooo world",
	"enum": "online",
	"firstname": "Rhea",
	"lastname": "Loring",
	"city": "Gothenburg",
	"country": "Sweden",
	"countryCode": "VI",
	"email uses current data": "Rhea.Loring@gmail.com",
	"email from expression": "Rhea.Loring@yopmail.com",
	"array": [
		"Kassey",
		"Collen",
		"Gianina",
		"Elfreda",
		"Abbie"
	],
	"array of objects": [
		{
			"index": 0,
			"index start at 5": 5
		},
		{
			"index": 1,
			"index start at 5": 6
		},
		{
			"index": 2,
			"index start at 5": 7
		}
	],
	"Hallie": {
		"age": 84
	}
}