{
	"random": 70,
	"random float": 26.569,
	"bool": false,
	"date": "1985-07-21",
	"regEx": "helloooooooooooooooooooooooooooooooooooooooooooooooooooooooooooo world",
	"enum": "json",
	"firstname": "Helena",
	"lastname": "Melony",
	"city": "Gothenburg",
	"country": "Denmark",
	"countryCode": "ER",
	"email uses current data": "Helena.Melony@gmail.com",
	"email from expression": "Helena.Melony@yopmail.com",
	"array": [
		"Gratia",
		"Livvyy",
		"Sybille",
		"Angela",
		"Adore"
	],
	"array of objects": [
		{
			"index": 0,
			"index start at 5": 5
		},
		{
			"index": 1,
			"index start at 5": 6
		},
		{
			"index": 2,
			"index start at 5": 7
		}
	],
	"Sallie": {
		"age": 71
	}
}