{
	"random": 69,
	"random float": 88.901,
	"bool": false,
	"date": "1991-04-20",
	"regEx": "hellooooooo to you",
	"enum": "generator",
	"firstname": "Annabela",
	"lastname": "Aaberg",
	"city": "Adana",
	"country": "Tajikistan",
	"countryCode": "MA",
	"email uses current data": "Annabela.Aaberg@gmail.com",
	"email from expression": "Annabela.Aaberg@yopmail.com",
	"array": [
		"Marline",
		"Debee",
		"Wilma",
		"Sue",
		"June"
	],
	"array of objects": [
		{
			"index": 0,
			"index start at 5": 5
		},
		{
			"index": 1,
			"index start at 5": 6
		},
		{
			"index": 2,
			"index start at 5": 7
		}
	],
	"Jaclyn": {
		"age": 29
	}
}