{
	"random": 25,
	"random float": 84.356,
	"bool": true,
	"date": "1985-06-15",
	"regEx": "hellooooooooooooooooooooooooooooo world",
	"enum": "online",
	"firstname": "Lindie",
	"lastname": "Stoller",
	"city": "Vaduz",
	"country": "Jordan",
	"countryCode": "GD",
	"email uses current data": "Lindie.Stoller@gmail.com",
	"email from expression": "Lindie.Stoller@yopmail.com",
	"array": [
		"Olwen",
		"Anestassia",
		"Candy",
		"Roberta",
		"Gianina"
	],
	"array of objects": [
		{
			"index": 0,
			"index start at 5": 5
		},
		{
			"index": 1,
			"index start at 5": 6
		},
		{
			"index": 2,
			"index start at 5": 7
		}
	],
	"Melanie": {
		"age": 59
	}
}