{
	"random": 35,
	"random float": 62.779,
	"bool": true,
	"date": "1994-09-19",
	"regEx": "hellooooooooooooooooooooooooooooooooooooooooooooooooooooooooo to you",
	"enum": "generator",
	"firstname": "Harrietta",
	"lastname": "Baptlsta",
	"city": "Kawasaki",
	"country": "Bhutan",
	"countryCode": "VA",
	"email uses current data": "Harrietta.Baptlsta@gmail.com",
	"email from expression": "Harrietta.Baptlsta@yopmail.com",
	"array": [
		"Kenna",
		"Carilyn",
		"Mildrid",
		"Bernardine",
		"Laurene"
	],
	"array of objects": [
		{
			"index": 0,
			"index start at 5": 5
		},
		{
			"index": 1,
			"index start at 5": 6
		},
		{
			"index": 2,
			"index start at 5": 7
		}
	],
	"Mariele": {
		"age": 41
	}
}