{
	"random": 63,
	"random float": 69.631,
	"bool": true,
	"date": "1996-12-23",
	"regEx": "helloooooooooooooooooooooooooooooooooooooooooooooooooooooooooooooooooooooo to you",
	"enum": "generator",
	"firstname": "Cathie",
	"lastname": "Regan",
	"city": "Kandahar",
	"country": "Cambodia",
	"countryCode": "FR",
	"email uses current data": "Cathie.Regan@gmail.com",
	"email from expression": "Cathie.Regan@yopmail.com",
	"array": [
		"Sherrie",
		"Vanessa",
		"June",
		"Rayna",
		"Chastity"
	],
	"array of objects": [
		{
			"index": 0,
			"index start at 5": 5
		},
		{
			"index": 1,
			"index start at 5": 6
		},
		{
			"index": 2,
			"index start at 5": 7
		}
	],
	"Frances": {
		"age": 72
	}
}