{
	"random": 93,
	"random float": 59.775,
	"bool": false,
	"date": "2000-01-11",
	"regEx": "helloooooooooooooooooooooooooooooooooooooooooooooooooooooooooooooooooooooooooooooooooooooooo world",
	"enum": "json",
	"firstname": "Lila",
	"lastname": "Jerold",
	"city": "Oranjestad",
	"country": "Tanzania, United Republic of",
	"countryCode": "UZ",
	"email uses current data": "Lila.Jerold@gmail.com",
	"email from expression": "Lila.Jerold@yopmail.com",
	"array": [
		"Jorry",
		"Marcelline",
		"Kirbee",
		"Ida",
		"Jaime"
	],
	"array of objects": [
		{
			"index": 0,
			"index start at 5": 5
		},
		{
			"index": 1,
			"index start at 5": 6
		},
		{
			"index": 2,
			"index start at 5": 7
		}
	],
	"Janenna": {
		"age": 35
	}
}