{
	"random": 64,
	"random float": 88.609,
	"bool": true,
	"date": "1998-08-24",
	"regEx": "helloooooooooooooooooooooooooooooooooooooooooooooooooooooooooooooooooooooooooooooooooooooooooo to you",
	"enum": "generator",
	"firstname": "Dyann",
	"lastname": "Daniele",
	"city": "Aberdeen",
	"country": "Malaysia",
	"countryCode": "SA",
	"email uses current data": "Dyann.Daniele@gmail.com",
	"email from expression": "Dyann.Daniele@yopmail.com",
	"array": [
		"Fanny",
		"Corina",
		"Cam",
		"Doralynne",
		"Aurelie"
	],
	"array of objects": [
		{
			"index": 0,
			"index start at 5": 5
		},
		{
			"index": 1,
			"index start at 5": 6
		},
		{
			"index": 2,
			"index start at 5": 7
		}
	],
	"Jasmina": {
		"age": 62
	}
}