{
	"random": 83,
	"random float": 82.489,
	"bool": true,
	"date": "1987-10-22",
	"regEx": "helloooooooooooooooooooooooooooooooooooooooooo world",
	"enum": "online",
	"firstname": "Jillayne",
	"lastname": "Wyn",
	"city": "Amman",
	"country": "Togo",
	"countryCode": "GB",
	"email uses current data": "Jillayne.Wyn@gmail.com",
	"email from expression": "Jillayne.Wyn@yopmail.com",
	"array": [
		"Carlie",
		"Aurelie",
		"Quintina",
		"Jolyn",
		"Stephanie"
	],
	"array of objects": [
		{
			"index": 0,
			"index start at 5": 5
		},
		{
			"index": 1,
			"index start at 5": 6
		},
		{
			"index": 2,
			"index start at 5": 7
		}
	],
	"Genovera": {
		"age": 42
	}
}