{
	"random": 76,
	"random float": 13.692,
	"bool": false,
	"date": "1980-10-03",
	"regEx": "hellooooooooo world",
	"enum": "generator",
	"firstname": "Cherilyn",
	"lastname": "Suzetta",
	"city": "Curitiba",
	"country": "Spain",
	"countryCode": "KP",
	"email uses current data": "Cherilyn.Suzetta@gmail.com",
	"email from expression": "Cherilyn.Suzetta@yopmail.com",
	"array": [
		"Thalia",
		"Kimmy",
		"Marti",
		"Tilly",
		"Blondelle"
	],
	"array of objects": [
		{
			"index": 0,
			"index start at 5": 5
		},
		{
			"index": 1,
			"index start at 5": 6
		},
		{
			"index": 2,
			"index start at 5": 7
		}
	],
	"Korrie": {
		"age": 20
	}
}