{
	"random": 30,
	"random float": 75.405,
	"bool": false,
	"date": "1991-08-06",
	"regEx": "hellooooooooooooooooooooooooooooooooooooooooooooooooooooooooooooooooooooooooooooooo world",
	"enum": "json",
	"firstname": "Caressa",
	"lastname": "Dorothy",
	"city": "Kandy",
	"country": "Guinea",
	"countryCode": "ZA",
	"email uses current data": "Caressa.Dorothy@gmail.com",
	"email from expression": "Caressa.Dorothy@yopmail.com",
	"array": [
		"Jackie",
		"Kate",
		"Nessie",
		"Kirstin",
		"Rosanne"
	],
	"array of objects": [
		{
			"index": 0,
			"index start at 5": 5
		},
		{
			"index": 1,
			"index start at 5": 6
		},
		{
			"index": 2,
			"index start at 5": 7
		}
	],
	"Aimil": {
		"age": 39
	}
}