{
	"random": 48,
	"random float": 95.397,
	"bool": true,
	"date": "1996-10-31",
	"regEx": "hellooooooooooooooooooooooooooooooooooooooooooooooooooooooooooooooooooooooooooooooooooooo world",
	"enum": "online",
	"firstname": "Ebonee",
	"lastname": "Fadiman",
	"city": "Taiyuan",
	"country": "Virgin Islands, U.S.",
	"countryCode": "BV",
	"email uses current data": "Ebonee.Fadiman@gmail.com",
	"email from expression": "Ebonee.Fadiman@yopmail.com",
	"array": [
		"Winifred",
		"Maud",
		"Catharine",
		"Marcy",
		"Dacia"
	],
	"array of objects": [
		{
			"index": 0,
			"index start at 5": 5
		},
		{
			"index": 1,
			"index start at 5": 6
		},
		{
			"index": 2,
			"index start at 5": 7
		}
	],
	"Lacie": {
		"age": 35
	}
}