{
	"random": 48,
	"random float": 3.217,
	"bool": false,
	"date": "1984-03-21",
	"regEx": "hellooooooooooooooooooooooooooooooooooooooooooooooooooo world",
	"enum": "generator",
	"firstname": "Merci",
	"lastname": "Gaynor",
	"city": "Wuhan",
	"country": "Cuba",
	"countryCode": "ML",
	"email uses current data": "Merci.Gaynor@gmail.com",
	"email from expression": "Merci.Gaynor@yopmail.com",
	"array": [
		"Meriel",
		"Molli",
		"Norine",
		"Amelia",
		"Joane"
	],
	"array of objects": [
		{
			"index": 0,
			"index start at 5": 5
		},
		{
			"index": 1,
			"index start at 5": 6
		},
		{
			"index": 2,
			"index start at 5": 7
		}
	],
	"Lucy": {
		"age": 55
	}
}